Employee Code,Title,Employee Name,Grade,Branch,Department,Division,Group,Category,Unit,Designation,Date of Birth,Date Joined,Date of Confirmation,Date Left
50727,Mr.,MAGAN KANJI GARANIA,WC.SWEEPER(MALE),1,ESTATE,1,CASUALS MUMBAI,CASUALS MUMBAI,MUMBAI,SWEEPER(MALE),10/07/1965,02/02/1984,02/02/1984,10/07/2023
99997,Dr.,CHITTARANJAN PAIN (M.S.),CONSULTANT,1,DISPENSARY,13,OFFICIALS,CONSULTANT,MOVING,MEDICAL CONSULTANT,29/09/1939,16/05/1998,16/05/1998,30/09/2016
12644,Mr.,SEBASTIAN T,H=DY MANAGER,1,DISPENSARY,13,STAFF,PERMANENT,MOVING,MALE NURSE,04/05/1968,20/07/2009,20/07/2009,31/05/2026
12710,Mr.,VISHWAMBHERSING I.RAWAT,I=ASST.MANAGER,1,DISPENSARY,13,STAFF,PERMANENT,MOVING,MALE NURSE,05/01/1965,21/02/2011,21/02/2011,31/01/2023
12739,Mr.,SHRINIWAS CHOUBEY,I=ASST.MANAGER,2,DISPENSARY,13,STAFF,PERMANENT,MOVING,MALE NURSE,01/03/1966,15/10/2011,15/10/2011,29/02/2024
12481,Mr.,NITIN B KEDARI,W.GR. II,2,ESTATE,2,WORKMEN,PERMANENT,MOVING,CARPENTER GIII,26/06/1970,01/09/2006,01/09/2006,30/06/2028
11979,Mr.,DINKAR KESU CHAVAN,W.GR. I,2,MOTOR DEPT.,9,WORKMEN,PERMANENT,MOVING,DRIVER S.G.,02/06/1960,01/11/1994,01/11/1994,30/06/2018
12206,Mr.,DILIP M.JADHAV,W.GR. I,2,MOTOR DEPT.,9,WORKMEN,PERMANENT,MOVING,HEAD MECHANIC,01/06/1968,01/08/1997,01/08/1997,31/05/2026
12207,Mr.,ELIASPASHA M.SHAIKH,W.GR. I,2,MOTOR DEPT.,9,WORKMEN,PERMANENT,MOVING,Head Mechanic / Driver,07/08/1975,01/08/1997,01/08/1997,31/08/2033
12918,Mr.,SANTOSH SAHEBRAO CHAVAN,W.GR. III,2,MOTOR DEPT.,9,WORKMEN,PERMANENT,MOVING,DRIVER,17/12/1981,10/11/2014,09/11/2015,31/12/2039
21827,Mr.,IMTIAZ AZIZ BAIG,W.GR. I,2,MOTOR DEPT.,9,WORKMEN,PERMANENT,MOVING,DRIVER,08/05/1961,01/01/1991,01/01/1991,31/05/2019
21962,Mr.,SANJAY A.PILLAY,W.GR. II,1,MOTOR DEPT.,9,WORKMEN,PERMANENT,MOVING,MECH GRII/DRIVER,14/12/1964,01/08/1994,01/08/1994,31/12/2022
22879,Mr.,PRABHAKAR MARUTI MADHALE,CONSOLIDATED,1,MOTOR DEPT.,8,WORKMEN,PERMANENT,MOVING,DRIVER/AUTO ELECT,01/03/1968,12/03/2014,12/09/2014,28/02/2026
31443,Mr.,GAFFAR KHAN S KHAN,W.GR.  I(A),2,MOTOR DEPT.,9,WORKMEN,PERMANENT,MOVING,SUPERVISOR(JUNIOR),26/12/1960,16/04/1982,16/04/1982,31/12/2018
32518,Mr.,RAMESH K CHAVAN,W.GR. III,2,MOTOR DEPT.,9,WORKMEN,PERMANENT,MOVING,DRIVER,02/08/1965,01/07/2007,01/07/2007,31/08/2023
99991,Mr.,SHUJAAT HUSSAIN,CONSULTANT,1,RACING,7,OFFICIALS,CONSULTANT,MOVING,CONSULTANT/SR.STIP.STEWARD,18/10/1971,21/12/2014,21/12/2014,20/12/2017
11261,Mr.,ANTHONY P MENDES,E-OFFICIAL,2,RACING,3,OFFICIALS,PERMANENT,MOVING,OFFICIAL(RACING),24/09/1956,01/01/1980,01/01/1980,30/09/2018
12469,Mr.,SHOBHAGSINGH J BHATI,G=MANAGER,2,RACING,3,STAFF,PERMANENT,MOVING,MANAGER,01/07/1985,01/05/2006,01/05/2006,30/06/2043
12478,Mr.,RAHUL S KAMBLE,I=ASST.MANAGER,2,RACING,3,STAFF,PERMANENT,MOVING,ASST.MANAGER,21/09/1972,12/08/2006,12/08/2006,30/09/2030
12539,Mr.,RUDOLF F DCOSTA,G=MANAGER,2,RACING,3,STAFF,PERMANENT,MOVING,MANAGER,14/09/1962,02/01/2008,02/01/2008,30/09/2020
12571,Mr.,HALLAPPA M KUNNURE,W.GR. II,1,RACING,3,DAFTARY,PERMANENT,MOVING,DAFTARY,04/01/1972,01/09/2008,01/09/2008,31/01/2030
12660,Mr.,VITHAL D PAWAR,J=ASSISTANT,1,RACING,3,STAFF,PERMANENT,MOVING,ASSISTANT,26/11/1977,03/01/2010,03/01/2010,30/11/2035
12666,Mr.,RAJENDRA M RANPISE,J=ASSISTANT,1,RACING,3,STAFF,PERMANENT,MOVING,ASSISTANT,19/05/1968,25/02/2010,25/08/2010,31/05/2026
12834,Mr.,DEVARAM CHUNARAM DEVASI,W.GR. III,2,RACING,3,PEON,PERMANENT,MOVING,PEON,19/08/1988,01/08/2012,01/02/2013,31/08/2046
12850,Mr.,SUHAS SHANKAR BHALERAO,J=ASSISTANT,1,RACING,3,STAFF,PERMANENT,MOVING,ASSISTANT,10/11/1979,22/04/2013,01/10/2013,30/11/2037
12872,Mr.,SAMBHAJI KISAN OVHAL,W.GR. III,2,RACING,3,PEON,PERMANENT,MOVING,PEON,14/05/1975,15/01/2014,15/07/2014,31/05/2033
12885,Mr.,VIJAYPRAKASH MANIRAM KUMBHAR,J=ASSISTANT,1,RACING,3,STAFF,PERMANENT,MOVING,ASSISTANT,09/08/1985,21/04/2014,01/12/2014,31/08/2043
12888,Mr.,SUSHANT BABAN GURAV,J=ASSISTANT,1,RACING,3,STAFF,PERMANENT,MOVING,ASSISTANT,15/12/1988,07/05/2014,01/11/2014,31/12/2046
12890,Mr.,KULESHWAR  SINGH,E-OFFICIAL,2,RACING,3,OFFICIALS,PERMANENT,MOVING,ASST.OFFICIAL,20/04/1991,30/05/2014,30/05/2014,30/04/2049
12946,Mr.,SANJAY H. HINGORANI,H=DY MANAGER,2,RACING,3,STAFF,PERMANENT,MOVING,STENOGRAPHER,01/02/1973,27/02/2016,27/02/2016,31/01/2031
19047,Mr.,RIYAZ MOHD.KHAN,C-OFFICIAL,1,RACING,3,OFFICIALS,PERMANENT,MOVING,Assistant Secretary,15/08/1967,11/11/1998,11/11/1998,31/08/2029
19090,Mr.,NIRANJAN SINGH G BHATI,C-OFFICIAL,1,RACING,3,OFFICIALS,PERMANENT,MOVING,HANDICAPPER AND DY. STIPENDIARY STEWARD,09/12/1977,07/05/2007,07/05/2007,31/12/2035
19120,Mr.,KHAN ITATH AMAN ,C-OFFICIAL,1,RACING,3,OFFICIALS,PERMANENT,MOVING,OFFICIAL(RACING),08/03/1976,01/08/2015,01/08/2015,31/03/2034
21524,Mr.,GAUTAM S KAMBLE,J=ASSISTANT,2,RACING,3,STAFF,PERMANENT,MOVING,ASSISTANT,21/03/1958,15/12/1983,15/12/1983,31/03/2016
39036,Mr.,JEHANGIR SAYED,D-OFFICIAL,1,RACING,3,OFFICIALS,PERMANENT,MOVING,OFFICER RACING/STARTER,06/03/1970,01/05/1993,01/05/1993,31/03/2032
11599,Mr.,RAJESH SHANKAR RAUT,W.GR.  I(A),2,RACING ST.GATE,3,WORKMEN,PERMANENT,MOVING,TRACK ATTENDANT,18/06/1961,01/02/1985,01/02/1985,30/06/2019
11637,Mr.,SHARAD GAJANAN ARGADE,W.GR. I,2,RACING ST.GATE,3,WORKMEN,PERMANENT,MOVING,SUPERVISOR,26/04/1958,01/01/1986,01/01/1986,30/04/2016
11911,Mr.,BALAJI T. KARDE,W.GR. I,2,RACING ST.GATE,3,WORKMEN,PERMANENT,MOVING,HANDLER/POOL ATTDT,25/05/1965,01/11/1993,01/11/1993,31/05/2023
12115,Mr.,SAMBHAJI SAHADEO PARAB,W.GR. II,1,RACING ST.GATE,3,WORKMEN,PERMANENT,MOVING,FITTER GR.II,09/10/1965,01/01/1996,01/01/1996,31/10/2023
12193,Mr.,MOHAN R.SANDIM,W.GR. III,1,RACING ST.GATE,3,WORKMEN,PERMANENT,MOVING,S/W POOL OPERATOR,10/01/1960,19/06/1997,19/06/1997,31/01/2018
12194,Mr.,PURSHOTTAM V.MADHALE,W.GR. III,1,RACING ST.GATE,3,WORKMEN,PERMANENT,MOVING,S/W POOL OPERATOR,09/06/1965,19/06/1997,19/06/1997,30/06/2023
12452,Mr.,HARI SINGH B SINGH RATHORE,W.GR. I,2,RACING ST.GATE,3,WORKMEN,PERMANENT,MOVING,HANDLER/POOL ATTDT,01/01/1968,01/10/2005,01/10/2005,31/12/2025
12524,Mr.,LAXMANSINGH A RATHOD,W.GR. I,2,RACING ST.GATE,3,WORKMEN,PERMANENT,MOVING,HANDLER/POOL ATTDT,10/06/1983,01/08/2007,01/08/2007,30/06/2041
12628,Mr.,SHANKARLAL R BISHNOI,W.GR. I,2,RACING ST.GATE,3,WORKMEN,PERMANENT,MOVING,HANDLER/POOL ATTDT,20/04/1974,13/02/2009,13/02/2009,30/04/2032
12831,Mr.,BHAGWANSINGH KUMSINGH RATHOD,CONSOLIDATED,2,RACING ST.GATE,3,WORKMEN,PERMANENT,MOVING,HANDLER/POOL ATTDT,12/05/1972,01/07/2012,01/01/2013,30/06/2018
12856,Mr.,KISHAN THANSINGH ,CONSOLIDATED,2,RACING ST.GATE,3,WORKMEN,PERMANENT,MOVING,HANDLER/POOL ATTDT,20/04/1990,05/08/2013,05/08/2013,31/07/2016
12866,Mr.,JOGSINGH K RATHORE,W.GR. III,1,RACING ST.GATE,3,WORKMEN,PERMANENT,MOVING,HANDLER/POOL ATTDT,12/03/1984,01/11/2013,01/11/2013,31/03/2042
12867,Mr.,NEPAL SINGH INDA,W.GR. III,1,RACING ST.GATE,3,WORKMEN,PERMANENT,MOVING,HANDLER/POOL ATTDT,04/07/1990,01/11/2013,01/11/2013,31/07/2048
12900,Mr.,THAN SINGH,W.GR. III,2,RACING ST.GATE,3,WORKMEN,PERMANENT,MOVING,HANDLER/POOL ATTDT,02/02/1975,07/07/2014,07/07/2014,28/02/2033
12936,Mr.,SAHJAD ALI MUNSHIRAJA,CONSOLIDATED,1,RACING ST.GATE,3,WORKMEN,PERMANENT,MOVING,HANDLER,01/01/1987,15/07/2015,15/01/2016,14/07/2018
12937,Mr.,VIKRAMSINGH JABARSINGH,CONSOLIDATED,1,RACING ST.GATE,3,WORKMEN,PERMANENT,MOVING,HANDLER,02/11/1980,15/07/2015,15/01/2016,14/07/2018
12943,Mr.,JASWANT SINGH K.PARIHAR,W.GR. III,2,RACING ST.GATE,3,WORKMEN,PERMANENT,MOVING,TRACK ATTENDANT,15/05/1969,01/09/2015,01/09/2015,31/05/2027
11459,Mr.,GEORGE R FARIA,E-OFFICIAL,2,SECRETARIAT,13,OFFICIALS,PERMANENT,MOVING,MANAGER-ADMN,15/04/1962,08/06/1982,08/06/1982,30/04/2020
11923,Mr.,KERSI D.MISTRY,G=MANAGER,2,T.V. M/P,11,STAFF,PERMANENT,MOVING,MANAGER,23/06/1971,01/05/1994,01/05/1994,30/06/2029
99993,Dr.,ANIL KUMAR,CONSULTANT,1,VETERINARY,7,OFFICIALS,CONSULTANT,MOVING,Chief Veterinary Officer,10/04/1966,05/08/2013,05/08/2013,04/08/2016
99996,Dr.,S. K. KULKARNI,CONSULTANT,1,VETERINARY,7,OFFICIALS,CONSULTANT,MOVING,CONSULTANT/SR.VET.OFFICER,31/01/1949,01/04/2010,01/04/2010,31/12/2017
12204,Mr.,P.C.ABRAHAM,H=DY MANAGER,2,VETERINARY,7,STAFF,PERMANENT,MOVING,DY.MANAGER,20/05/1960,01/08/1997,01/08/1997,31/05/2018
12219,Mr.,ASHOK HIRAMAN DHENDE,W.GR. II,2,VETERINARY,7,WORKMEN,PERMANENT,MOVING,VET ATTDT II,10/05/1965,01/11/1997,01/11/1997,31/05/2023
12224,Mr.,RAHUL GOPAL GAIKWAD,J=ASSISTANT,2,VETERINARY,7,STAFF,PERMANENT,MOVING,ASSISTANT,18/03/1976,01/11/1997,01/11/1997,31/03/2034
12448,Mr.,SHANKAR MARUTI SARODE,I=ASST.MANAGER,2,VETERINARY,7,STAFF,PERMANENT,MOVING,ASST.MANAGER,16/02/1981,01/09/2005,01/09/2005,28/02/2039
12454,Mr.,PRASHANT S BHOSALE,J=ASSISTANT,2,VETERINARY,7,STAFF,PERMANENT,MOVING,JR.LAB TECHINICIAN,03/05/1976,25/11/2005,25/11/2005,31/05/2034
12470,Mr.,RAVINDRA D SHINDE,I=ASST.MANAGER,2,VETERINARY,7,STAFF,PERMANENT,MOVING,ASST.MANAGER,04/07/1976,01/05/2006,01/05/2006,31/07/2034
12537,Mr.,SUNIL SAIRAM BANKAR,I=ASST.MANAGER,2,VETERINARY,7,STAFF,PERMANENT,MOVING,RADIOLOGY TECH,27/10/1984,01/12/2007,01/12/2007,31/10/2042
12691,Mr.,ARUN S. KAMBLE,W.GR. II,2,VETERINARY,7,WORKMEN,PERMANENT,MOVING,COMOUNDER VET,11/06/1959,01/07/2010,01/07/2010,30/06/2017
12706,Mr.,NILESH RAMCHANDRA LAD,I=ASST.MANAGER,2,VETERINARY,7,STAFF,PERMANENT,MOVING,ASST.MANAGER,06/10/1986,01/01/2011,01/01/2011,31/10/2044
12858,Mr.,PRITAM JAYANTILAL RUPAWAT,I=ASST.MANAGER,2,VETERINARY,7,STAFF,PERMANENT,MOVING,Pharmacist,26/10/1989,21/09/2013,01/06/2014,31/10/2047
12864,Mr.,BALRAM SUNDARSINGH RAIKAL,I=ASST.MANAGER,2,VETERINARY,7,STAFF,PERMANENT,MOVING,MALE NURSE,30/11/1984,01/11/2013,01/05/2014,30/11/2042
12874,Mr.,VASUDEV SATAPPA VASHIKAR,W.GR. III,1,VETERINARY,7,PEON,PERMANENT,MOVING,PEON,13/12/1989,01/02/2014,01/02/2014,31/12/2047
12875,Mr.,MANOJ MALHARI AWALE,CONSOLIDATED,2,VETERINARY,7,PEON,PERMANENT,MOVING,PEON,22/04/1984,01/03/2014,05/09/2014,30/04/2042
12939,Mr.,BINOD DHARME RAIKAL,CONSOLIDATED,2,VETERINARY,7,STAFF,PERMANENT,MOVING,MALE NURSE,02/09/1992,01/08/2015,01/02/2016,31/08/2050
12940,Mr.,YASHWANT DADU RANDIVE,CONSOLIDATED,2,VETERINARY,7,PEON,PERMANENT,MOVING,PEON,14/11/1971,01/08/2015,01/02/2016,30/11/2029
19089,Dr.,SUNIL S PUND,D-OFFICIAL,1,VETERINARY,7,OFFICIALS,PERMANENT,MOVING,VET. OFFICER,13/08/1965,06/12/2006,06/12/2006,31/08/2023
19109,Dr.,PANDURANG G SAWANDKAR,D-OFFICIAL,1,VETERINARY,7,OFFICIALS,PERMANENT,MOVING,VET. OFFICER,03/01/1982,27/04/2009,27/04/2009,31/01/2040
19112,Dr.,YOGESH D. BHOSALE,D-OFFICIAL,1,VETERINARY,7,OFFICIALS,PERMANENT,MOVING,VET. OFFICER,19/06/1980,16/05/2010,01/11/2010,30/06/2038
19115,Dr.,ANIL PRABHAKAR LAHANE,D-OFFICIAL,2,VETERINARY,7,OFFICIALS,PERMANENT,MOVING,VET. OFFICER,15/01/1986,01/07/2012,01/01/2013,31/01/2044
19118,Dr.,ANHADBIR SINGH SIDHU,E-OFFICIAL,2,VETERINARY,7,OFFICIALS,PERMANENT,MOVING,ASST.VET.OFFICER,29/08/1989,12/05/2015,12/05/2015,31/08/2047
19125,Dr.,JAYAVANT CHANDRAKANT JUVEKAR,E-OFFICIAL,2,VETERINARY,7,OFFICIALS,PERMANENT,MOVING,ASST.VET.OFFICER,20/10/1981,01/10/2015,01/10/2015,31/10/2039
22124,Mr.,DHIREN N.KHANOLKAR,H=DY MANAGER,1,VETERINARY,7,STAFF,PERMANENT,MOVING,DY.MANAGER,24/12/1971,01/05/1996,01/05/1996,31/12/2029
32300,Mr.,MALHARI RAMA AWLE,W.GR. III,2,VETERINARY,7,PEON,PERMANENT,MOVING,PEON,01/12/1958,01/04/2000,01/04/2000,30/11/2016
42202,Mr.,PRASHANT V.SHAH,H=DY MANAGER,3,VETERINARY,7,STAFF,PERMANENT,MOVING,DY.MANAGER,08/04/1971,12/07/1997,12/07/1997,30/04/2029
12228,Mr.,STEVEN A.FERNANDES,H=DY MANAGER,1,A.D.M.,13,STAFF,PERMANENT,MUMBAI,DY.MANAGER,02/05/1974,15/11/1997,15/11/1997,31/05/2032
22675,Mr.,SOOREJ  R. THAMPI,I=ASST.MANAGER,1,A.D.M.,13,STAFF,PERMANENT,MUMBAI,ASST.MANAGER,11/08/1983,19/04/2010,19/04/2010,31/08/2041
22814,Mr.,PRASHANT PRAKASH UKIRDE,W.GR. III,1,A.D.M.,13,PEON,PERMANENT,MUMBAI,PEON,02/11/1987,01/07/2012,01/01/2013,30/11/2045
22907,Mr.,DADHIBAL SINGH ,H=DY MANAGER,1,A.D.M.,13,STAFF,PERMANENT,MUMBAI,Helicopter Landing Officer,20/05/1965,11/08/2014,11/08/2014,31/05/2023
99990,Mr.,ZOHER MOHD.ALI ZANZIBARWALA,CONSULTANT,1,ACCOUNTS,13,OFFICIALS,CONSULTANT,MUMBAI,CONTROLLER OF ACCOUNTS,22/10/1961,01/02/2015,01/02/2015,21/10/2019
11573,Mr.,C.VIJAYAKUMAR MENON,G=MANAGER,1,ACCOUNTS,13,STAFF,PERMANENT,MUMBAI,MANAGER,04/12/1961,01/10/1984,01/10/1984,31/12/2019
11645,Mr.,VINAY VIJAY MOHOLKAR,G=MANAGER,1,ACCOUNTS,13,STAFF,PERMANENT,MUMBAI,MANAGER,07/02/1964,01/07/1986,01/07/1986,28/02/2022
21532,Mr.,SUNIL M JADHAV,W.GR. II,1,ACCOUNTS,13,DAFTARY,PERMANENT,MUMBAI,DAFTARY,24/06/1961,01/01/1984,01/01/1984,30/06/2019
21917,Mr.,RAJESH S.TUSCANO,G=MANAGER,1,ACCOUNTS,13,STAFF,PERMANENT,MUMBAI,MANAGER,09/12/1971,01/04/1994,01/04/1994,31/12/2029
21918,Mr.,KRISHNAN V.IYER,G=MANAGER,1,ACCOUNTS,13,STAFF,PERMANENT,MUMBAI,MANAGER,15/08/1970,01/04/1994,01/04/1994,31/08/2028
21984,Mr.,RAJU KISON SATHE,W.GR. II,1,ACCOUNTS,13,DAFTARY,PERMANENT,MUMBAI,DAFTARY,15/08/1962,01/12/1994,01/12/1994,31/08/2020
22139,Mr.,HEMANT B.MALEKAR,G=MANAGER,1,ACCOUNTS,13,STAFF,PERMANENT,MUMBAI,MANAGER,11/11/1968,01/08/1996,01/08/1996,30/11/2026
22519,Mr.,LALIT RAMESH RASAM,H=DY MANAGER,1,ACCOUNTS,13,STAFF,PERMANENT,MUMBAI,DY.MANAGER,04/09/1981,01/07/2007,01/07/2007,30/09/2039
22658,Mr.,SUNIL MANOHAR AYARE,H=DY MANAGER,1,ACCOUNTS,13,STAFF,PERMANENT,MUMBAI,DY.MANAGER,28/08/1975,01/01/2010,01/01/2010,31/08/2033
22848,Mr.,GANGADHAR D KADAM,G=MANAGER,1,ACCOUNTS,13,STAFF,PERMANENT,MUMBAI,MANAGER,06/06/1975,07/03/2013,07/03/2013,30/06/2033
22884,Mr.,SUDHIR MADHUKAR BARGODE,G=MANAGER,1,ACCOUNTS,13,STAFF,PERMANENT,MUMBAI,ACCOUNTANT,28/08/1980,15/04/2014,14/10/2014,31/08/2038
22942,Mr.,VIJAY VISHNU JADHAV,I=ASST.MANAGER,1,ACCOUNTS,13,STAFF,PERMANENT,MUMBAI,ASST.MANAGER,23/12/1975,15/09/2015,15/09/2015,31/12/2033
29121,Mr.,SANJAY SURAJ BHOLA,C-OFFICIAL,1,ACCOUNTS,13,OFFICIALS,PERMANENT,MUMBAI,CONTROLLER OF ACCOUNTS,26/12/1966,31/08/2015,31/08/2015,31/12/2024
22565,Mr.,PRADEEP N MANDAVKAR,W.GR. II,1,DESPATCH,13,DAFTARY,PERMANENT,MUMBAI,DAFTARY,02/06/1975,01/09/2008,01/09/2008,30/06/2033
22566,Mr.,SANTOSH A KUDAPKAR,W.GR. II,1,DESPATCH,13,DAFTARY,PERMANENT,MUMBAI,DAFTARY,12/03/1976,01/09/2008,01/09/2008,31/03/2034
22756,Mr.,MILIND S.BHOSLE,W.GR. III,1,DESPATCH,13,PEON,PERMANENT,MUMBAI,PEON,09/12/1992,01/01/2012,01/01/2013,31/12/2050
22771,Mr.,SAROSH K MISTRY,CONSOLIDATED,1,DESPATCH,13,STAFF,PERMANENT,MUMBAI,ASSISTANT,01/01/1953,01/03/2012,01/03/2012,28/02/2018
22886,Mr.,ANIL YASHWANT SAWANT,CONSOLIDATED,1,DESPATCH,13,PEON,PERMANENT,MUMBAI,PEON,07/07/1975,02/05/2014,01/11/2014,31/07/2033
21588,Mr.,AVINASH DASHARAT MAYEKAR,W.GR.  I(A),1,ELECT.& MECH.,10,WORKMEN,PERMANENT,MUMBAI,FITTER GR.I,27/07/1962,23/11/1984,23/11/1984,31/07/2020
21868,Mr.,GOVIND SINGH KHEMSING BISHT,W.GR. II,1,ELECT.& MECH.,10,WORKMEN,PERMANENT,MUMBAI,ELECT. GR.II,03/01/1965,03/06/1992,03/06/1992,31/01/2023
21976,Mr.,CHANDIKAPRASAD G.SWARNKAR,W.GR. II,1,ELECT.& MECH.,10,WORKMEN,PERMANENT,MUMBAI,ELECT. GR.II,15/04/1959,01/11/1994,01/11/1994,30/04/2017
22479,Mr.,SHANKAR S JABRE,J=ASSISTANT,1,ELECT.& MECH.,10,STAFF,PERMANENT,MUMBAI,Electrical Supervisor,29/01/1977,23/08/2006,23/08/2006,31/01/2035
22503,Mr.,DEEPAK B LOKHANDE,W.GR. II,1,ELECT.& MECH.,10,WORKMEN,PERMANENT,MUMBAI,ELECT.GR.II,02/09/1963,01/07/2007,01/07/2007,30/09/2021
22504,Mr.,MAHENDRA B BHISE,W.GR. III,1,ELECT.& MECH.,10,WORKMEN,PERMANENT,MUMBAI,ELECT.G.III,29/05/1970,01/07/2007,01/07/2007,31/05/2028
22505,Mr.,MANOJ M PAWAR,W.GR. III,1,ELECT.& MECH.,10,WORKMEN,PERMANENT,MUMBAI,ELECT.G.III,20/11/1967,01/07/2007,01/07/2007,30/11/2025
22506,Mr.,ANTHONY J MARTIS,W.GR. I,1,ELECT.& MECH.,10,WORKMEN,PERMANENT,MUMBAI,ELECT.GR.II,31/03/1964,01/07/2007,01/07/2007,31/03/2022
22507,Mr.,CHANDRAKANT M GHAWALI,W.GR. I,1,ELECT.& MECH.,10,WORKMEN,PERMANENT,MUMBAI,ELECT.GR.II,05/01/1975,01/07/2007,01/07/2007,31/01/2033
22563,Mr.,NARESH BABAJI TAMHANKAR,W.GR. III,1,ELECT.& MECH.,10,WORKMEN,PERMANENT,MUMBAI,STORES ATTDT/ELECTRICIAN,24/11/1968,01/09/2008,01/09/2008,30/11/2026
22564,Mr.,DATTARAM G VASKAR,W.GR. III,1,ELECT.& MECH.,10,WORKMEN,PERMANENT,MUMBAI,LIFTMAN/ELECTRICIAN,01/06/1965,01/09/2008,01/09/2008,31/05/2023
22809,Mr.,GURUNATH GANPAT NIMBRE,W.GR. III,1,ELECT.& MECH.,10,WORKMEN,PERMANENT,MUMBAI,ELECT.G.III,17/02/1983,15/06/2012,01/12/2012,28/02/2041
22908,Mr.,SHIVBAHADUR R SINGH,CONSOLIDATED,1,ELECT.& MECH.,10,WORKMEN,PERMANENT,MUMBAI,ELECT.GR.I,10/08/1956,01/09/2014,01/09/2014,31/08/2016
22911,Mr.,SUBHASH SHANKAR GURAV,CONSOLIDATED,1,ELECT.& MECH.,10,WORKMEN,PERMANENT,MUMBAI,MALE MAZDOOR,04/06/1968,01/09/2014,01/03/2015,30/06/2026
22912,Mr.,MAHENDRA MANOHAR RANPISE,CONSOLIDATED,1,ELECT.& MECH.,10,WORKMEN,PERMANENT,MUMBAI,MALE MAZDOOR,16/08/1976,01/09/2014,01/03/2015,31/08/2034
22913,Mr.,ABHIJIT ANIL KHANOLKAR,CONSOLIDATED,1,ELECT.& MECH.,10,WORKMEN,PERMANENT,MUMBAI,MALE MAZDOOR,30/12/1973,01/09/2014,01/03/2015,31/12/2031
22914,Mr.,NILESH CHANDRAKANT NAKASHE,CONSOLIDATED,1,ELECT.& MECH.,10,WORKMEN,PERMANENT,MUMBAI,MALE MAZDOOR,12/10/1977,01/09/2014,01/03/2015,31/10/2035
22926,Mr.,KUNDAN GAJANAN POMENDKAR,W.GR. III,1,ELECT.& MECH.,10,WORKMEN,PERMANENT,MUMBAI,P.A.System Operator / Electrician,01/05/1985,25/03/2015,25/09/2015,30/04/2043
22929,Mr.,SHAILESH TANU PITALE,W.GR. III,1,ELECT.& MECH.,10,WORKMEN,PERMANENT,MUMBAI,ELECTRICIAN,17/10/1977,18/05/2015,18/11/2015,31/10/2035
22945,Mr.,CHETAN B. PATIL,G=MANAGER,1,ELECT.& MECH.,10,STAFF,PERMANENT,MUMBAI,Manager Electrical,16/10/1978,24/02/2016,24/02/2016,15/10/2036
12212,Mr.,KAMLESH R.SINGH,W.GR. I,1,ESTATE,1,WORKMEN,PERMANENT,MUMBAI,ELECT/MECH/TECH,01/03/1973,03/09/1997,03/09/1997,28/02/2031
21256,Mr.,ASHRAF MOHD.SHAIKH,D-OFFICIAL,1,ESTATE,1,OFFICIALS,PERMANENT,MUMBAI,DY CLERK OF THE COURSE,01/06/1959,01/08/1979,01/08/1979,31/05/2021
21586,Mr.,SHIVAJI SHANKAR KURNE,W.GR.  I(A),1,ESTATE,1,WORKMEN,PERMANENT,MUMBAI,HD.FITTER/TURNER,12/09/1961,19/11/1984,19/11/1984,30/09/2019
21657,Mr.,SHRIMANT S.PATIL,W.GR. II,1,ESTATE,1,WORKMEN,PERMANENT,MUMBAI,MACHINE ATTDT II,16/02/1960,15/07/1987,15/07/1987,28/02/2018
21810,Mr.,GELARBERT P. DMELLO,W.GR.  I(A),1,ESTATE,1,WORKMEN,PERMANENT,MUMBAI,FITTER GR.I,12/07/1968,01/07/1990,01/07/1990,31/07/2026
21970,Mr.,RAJAN H.SAMANT,G=MANAGER,1,ESTATE,1,STAFF,PERMANENT,MUMBAI,MANAGER,31/07/1965,01/10/1994,01/10/1994,31/07/2023
22010,Mr.,RAMSWARUP BINDAI BORIYA,W.GR. III,1,ESTATE,1,WORKMEN,PERMANENT,MUMBAI,MUKADAM,10/08/1960,03/05/1995,03/05/1995,31/08/2018
22015,Mr.,RAMCHANDRA ANNA UMAPE,W.GR. III,1,ESTATE,1,WORKMEN,PERMANENT,MUMBAI,MUKADAM,01/01/1959,03/05/1995,03/05/1995,31/12/2016
22211,Mr.,MANOHAR A.FIGER,G=MANAGER,1,ESTATE,1,STAFF,PERMANENT,MUMBAI,MANAGER,10/10/1974,02/09/1997,02/09/1997,31/10/2032
22260,Mr.,MUNSHIRAJA ELIAS MOHOMED,W.GR. IV(A),1,ESTATE,1,WORKMEN,PERMANENT,MUMBAI,MALE MAZDOOR,01/07/1958,13/01/2000,13/01/2000,30/06/2016
22281,Mr.,LAXMAN YELLAPPA KALPOTH,W.GR. I,1,ESTATE,1,WORKMEN,PERMANENT,MUMBAI,CARPENTER GI,18/06/1964,13/01/2000,13/01/2000,30/06/2022
22286,Mr.,DINKAR  GOVIND KAMBLE,W.GR. I,1,ESTATE,1,WORKMEN,PERMANENT,MUMBAI,WELDER / FITTER G-II,02/06/1965,13/01/2000,13/01/2000,30/06/2023
22367,Mr.,CHANDRAKANT M. NIMBRE,W.GR. III,1,ESTATE,1,WORKMEN,PERMANENT,MUMBAI,MALI,03/03/1958,01/06/2002,01/06/2002,31/03/2016
22371,Mr.,RAMCHANDRA GANU BHOGALE,W.GR. IV(A),1,ESTATE,1,WORKMEN,PERMANENT,MUMBAI,MALE MAZDOOR,01/04/1960,01/07/2002,01/07/2002,31/03/2018
22379,Mr.,SHANKAR VITTHAL LOKHANDE,W.GR. IV(A),1,ESTATE,1,WORKMEN,PERMANENT,MUMBAI,MALE MAZDOOR,01/06/1960,01/11/2002,01/11/2002,31/05/2018
22380,Mr.,VISHWANATH VITTHAL GAVKAR,W.GR. I,1,ESTATE,1,WORKMEN,PERMANENT,MUMBAI,S.B. PAINTER,01/01/1960,01/11/2002,01/11/2002,31/12/2017
22383,Mr.,ASHOK BHAGURAM JADHAV,W.GR. III,1,ESTATE,1,WORKMEN,PERMANENT,MUMBAI,MASON,15/01/1961,01/03/2003,01/03/2003,31/01/2019
22392,Mr.,MANSUKH THAKARSI KHARVA,W.GR. IV(A),1,ESTATE,1,WORKMEN,PERMANENT,MUMBAI,MALE MAZDOOR,28/09/1958,01/07/2003,01/07/2003,30/09/2016
22396,Mr.,VISHNU DHARMAJI PHUTAK,W.GR. I,1,ESTATE,1,WORKMEN,PERMANENT,MUMBAI,FITTER GR.II,01/06/1961,01/10/2003,01/10/2003,31/05/2019
22398,Mr.,PRALHAD MALHARI SATHE,W.GR. III,1,ESTATE,1,WORKMEN,PERMANENT,MUMBAI,MUKADAM,01/06/1962,01/10/2003,01/10/2003,31/05/2020
22408,Mr.,SHAMIM HUSSAIN MADAR,W.GR. I,1,ESTATE,1,WORKMEN,PERMANENT,MUMBAI,FITTER GR.II,10/07/1962,01/07/2004,01/07/2004,31/07/2020
22415,Ms.,RADHA JANU PATIL,W.GR. IV(A),1,ESTATE,1,WORKMEN,PERMANENT,MUMBAI,FEMALE MAZDOOR,20/11/1959,01/08/2004,01/08/2004,30/11/2017
22427,Mr.,MANIK KRISHNA KAMBLE,W.GR. IV(A),1,ESTATE,1,WORKMEN,PERMANENT,MUMBAI,MALE MAZDOOR,01/06/1960,01/04/2005,01/04/2005,31/05/2018
22433,Mr.,BHIMA BABAN ALHAT,W.GR. IV(A),1,ESTATE,1,WORKMEN,PERMANENT,MUMBAI,MALE MAZDOOR,01/01/1963,01/06/2005,01/06/2005,31/12/2020
22438,Mr.,DADABHAU PIRAJI AKUTE,W.GR. I,1,ESTATE,1,WORKMEN,PERMANENT,MUMBAI,PLUMBER,15/01/1963,01/07/2005,01/07/2005,31/01/2021
22440,Mr.,ASHOK VASANT MADHALE,W.GR. IV(A),1,ESTATE,1,WORKMEN,PERMANENT,MUMBAI,MALE MAZDOOR,13/10/1960,01/08/2005,01/08/2005,31/10/2018
22444,Mr.,BHAIRU PARSU PATIL,W.GR. III,1,ESTATE,1,WORKMEN,PERMANENT,MUMBAI,MUKADAM,05/11/1960,01/08/2005,01/08/2005,30/11/2018
22459,Ms.,SUNANDA SUDHAKAR JADHAV,W.GR. IV(A),1,ESTATE,1,WORKMEN,PERMANENT,MUMBAI,FEMALE MAZDOOR,01/09/1959,01/02/2006,01/02/2006,31/08/2017
22475,Ms.,PREMA BHUSHAN BALE,W.GR. IV(A),1,ESTATE,1,WORKMEN,PERMANENT,MUMBAI,FEMALE MAZDOOR,06/07/1962,01/07/2006,01/07/2006,31/07/2020
22485,Mr.,NARAYAN R BHOGALE,W.GR. IV(A),1,ESTATE,1,WORKMEN,PERMANENT,MUMBAI,CLOAK ROOM ATTDT.,07/06/1963,01/10/2006,01/10/2006,30/06/2021
22486,Mr.,SURESH VITTHAL ROKDE,W.GR. IV(A),1,ESTATE,1,WORKMEN,PERMANENT,MUMBAI,MALE MAZDOOR,08/07/1965,01/01/2007,01/01/2007,31/07/2023
22488,Mr.,ANIL LAXMAN SANGARE,W.GR. II,1,ESTATE,1,WORKMEN,PERMANENT,MUMBAI,ETP PLANT OPERATOR,15/07/1965,01/02/2007,01/02/2007,31/07/2023
22492,Ms.,SHUBHANGI MAHADEO KAMBLE,W.GR. IV(A),1,ESTATE,1,WORKMEN,PERMANENT,MUMBAI,FEMALE MAZDOOR,15/07/1958,01/03/2007,01/03/2007,31/07/2016
22508,Mr.,NITIN G RATHOD,W.GR. II,1,ESTATE,1,WORKMEN,PERMANENT,MUMBAI,ETP PLANT OPERATOR,21/08/1969,01/07/2007,01/07/2007,31/08/2027
22511,Mr.,RAHUL P MISTRY,W.GR. II,1,ESTATE,1,WORKMEN,PERMANENT,MUMBAI,CARPENTER GIII,09/05/1977,01/07/2007,01/07/2007,31/05/2035
22532,Mr.,RAMCHARAN BHAGWATIPRASAD,W.GR. IV(A),1,ESTATE,1,WORKMEN,PERMANENT,MUMBAI,MALE MAZDOOR,20/10/1969,01/10/2007,01/10/2007,31/10/2027
22548,Ms.,MANJU RAMESH RATHOD,W.GR. IV(A),1,ESTATE,1,WORKMEN,PERMANENT,MUMBAI,FEMALE MAZDOOR,11/02/1965,01/06/2008,01/06/2008,28/02/2023
22549,Mr.,VIJAYSHANKAR RAMPRATAP,W.GR. IV(A),1,ESTATE,1,WORKMEN,PERMANENT,MUMBAI,MALE MAZDOOR,15/05/1968,01/07/2008,01/07/2008,31/05/2026
22550,Mr.,SANDIP LAXMAN SANGARE,W.GR. IV(A),1,ESTATE,1,WORKMEN,PERMANENT,MUMBAI,MALE MAZDOOR,07/03/1963,01/07/2008,01/07/2008,31/03/2021
22551,Mr.,VITHAL ANANT BHOGLE,W.GR. IV(A),1,ESTATE,1,WORKMEN,PERMANENT,MUMBAI,MALE MAZDOOR,08/04/1960,01/09/2008,01/09/2008,30/04/2018
22552,Mr.,LAXMAN SAKHARAM BHOME,W.GR. IV(A),1,ESTATE,1,WORKMEN,PERMANENT,MUMBAI,MALE MAZDOOR,01/07/1961,01/09/2008,01/09/2008,30/06/2019
22553,Mr.,RAMCHANDRA ZILLU GAWADE,W.GR. IV(A),1,ESTATE,1,WORKMEN,PERMANENT,MUMBAI,MALE MAZDOOR,20/02/1971,01/09/2008,01/09/2008,28/02/2029
22554,Mr.,GOVIND DHARAMJI PHUTAK,W.GR. II,1,ESTATE,1,WORKMEN,PERMANENT,MUMBAI,CARPENTER GIII,02/06/1966,01/09/2008,01/09/2008,30/06/2024
22555,Mr.,ARUN MARUTI MADHALE,W.GR. IV(A),1,ESTATE,1,WORKMEN,PERMANENT,MUMBAI,MALE MAZDOOR,07/03/1962,01/09/2008,01/09/2008,31/03/2020
22556,Mr.,JAGDISH RAMCHANDRA JADHAV,W.GR. IV(A),1,ESTATE,1,WORKMEN,PERMANENT,MUMBAI,MALE MAZDOOR,04/02/1963,01/09/2008,01/09/2008,28/02/2021
22558,Mr.,RAJENDRA RAMCHANDRA GAVANKAR,J=ASSISTANT,1,ESTATE,1,STAFF,PERMANENT,MUMBAI,GODOWN KEEPER,21/05/1968,01/09/2008,01/09/2008,31/05/2026
22560,Mr.,RAJU BHAGWAN SOLANKI,W.GR. IV(A),1,ESTATE,1,WORKMEN,PERMANENT,MUMBAI,MAZDOOR\SWEEPER,01/06/1962,01/09/2008,01/09/2008,31/05/2020
22561,Mr.,SANDEEP ANANT SUTAR,W.GR. III,1,ESTATE,1,PEON,PERMANENT,MUMBAI,PEON,25/08/1968,01/09/2008,01/09/2008,31/08/2026
22562,Mr.,RAJESH SHANKAR GOTAD,W.GR. I,1,ESTATE,1,WORKMEN,PERMANENT,MUMBAI,FITTER,02/04/1977,01/09/2008,01/09/2008,30/04/2035
22615,Mr.,ASHOK BABAJI TAMHANKAR,W.GR. IV(A),1,ESTATE,1,WORKMEN,PERMANENT,MUMBAI,GODOWN KEEPER,24/09/1963,01/09/2008,01/09/2008,30/09/2021
22617,Mr.,MANOJ VISHNU KAKDE,W.GR. IV(A),1,ESTATE,1,WORKMEN,PERMANENT,MUMBAI,MALE MAZDOOR,04/09/1969,01/09/2008,01/09/2008,30/09/2027
22618,Mr.,KANTILAL MOHANLAL WAGHELA,W.GR. IV(A),1,ESTATE,1,WORKMEN,PERMANENT,MUMBAI,MAZDOOR\SWEEPER,19/06/1965,01/09/2008,01/09/2008,30/06/2023
22619,Mr.,ARVIND TUKARAM SHINDE,W.GR. III,1,ESTATE,1,WORKMEN,PERMANENT,MUMBAI,MAZDOOR/GARDENER,15/04/1974,01/09/2008,01/09/2008,30/04/2032
22622,Mr.,ANIL RAMCHANDRA GHAWALI,W.GR. IV(A),1,ESTATE,1,WORKMEN,PERMANENT,MUMBAI,MALE MAZDOOR,29/11/1969,01/11/2008,01/11/2008,30/11/2027
22624,Mr.,NANDKUMAR GOPAL DHULAP,W.GR. IV(A),1,ESTATE,1,WORKMEN,PERMANENT,MUMBAI,MALE MAZDOOR,01/06/1963,01/01/2009,01/01/2009,31/05/2021
22626,Mr.,ANANT GOVIND PEJE,W.GR. III,1,ESTATE,1,WORKMEN,PERMANENT,MUMBAI,MUKADAM,07/03/1971,01/02/2009,01/02/2009,31/03/2029
22633,Mr.,KAILASH C LOHARE,W.GR. III,1,ESTATE,1,WORKMEN,PERMANENT,MUMBAI,PLUMBER,01/04/1969,01/04/2009,01/04/2009,31/03/2027
22634,Mr.,MADHUKAR TUKARAM PATIL,W.GR. IV(A),1,ESTATE,1,WORKMEN,PERMANENT,MUMBAI,MALE MAZDOOR,01/06/1959,01/05/2009,01/05/2009,31/05/2017
22640,Mr.,MARUTI VITHOBA PATIL,W.GR. IV(A),1,ESTATE,1,WORKMEN,PERMANENT,MUMBAI,MALE MAZDOOR,01/09/1962,01/07/2009,01/07/2009,31/08/2020
22641,Mr.,SURESH MAHADEO KHAKE,W.GR. II,1,ESTATE,1,WORKMEN,PERMANENT,MUMBAI,MASON GR.III,15/08/1970,01/07/2009,01/07/2009,31/08/2028
22642,Mr.,ASHOK EKNATH KHANKAL,W.GR. IV(A),1,ESTATE,1,WORKMEN,PERMANENT,MUMBAI,MALE MAZDOOR,06/10/1967,01/07/2009,01/07/2009,31/10/2025
22647,Mr.,RAJENDRA PANDURANG RAVIDHONE,W.GR. IV(A),1,ESTATE,1,WORKMEN,PERMANENT,MUMBAI,MALE MAZDOOR,16/01/1969,01/09/2009,01/09/2009,31/01/2027
22650,Mr.,ARVIND DHONDU GHATKAR,W.GR. IV(A),1,ESTATE,1,WORKMEN,PERMANENT,MUMBAI,MALE MAZDOOR,01/06/1970,01/10/2009,01/10/2009,31/05/2028
22651,Mr.,PRABHAKAR GUNAJI TALEKAR,W.GR. IV(A),1,ESTATE,1,WORKMEN,PERMANENT,MUMBAI,MALE MAZDOOR,15/05/1965,01/10/2009,01/10/2009,31/05/2023
22652,Mr.,TANAJI GUNAJI BHOGLE,W.GR. IV(A),1,ESTATE,1,WORKMEN,PERMANENT,MUMBAI,MALE MAZDOOR,04/07/1962,01/10/2009,01/10/2009,31/07/2020
22654,Mr.,MILIND DNYANDEO PAWAR,W.GR. IV(A),1,ESTATE,1,WORKMEN,PERMANENT,MUMBAI,MALE MAZDOOR,24/10/1964,01/11/2009,01/11/2009,31/10/2022
22665,Mr.,GAUTAM V. KAMBLE,W.GR. IV,1,ESTATE,1,WORKMEN,PERMANENT,MUMBAI,MALE MAZDOOR,11/09/1961,01/02/2010,01/02/2010,30/09/2019
22670,Mr.,KRISHNA L MANDAVKAR,W.GR. IV,1,ESTATE,1,WORKMEN,PERMANENT,MUMBAI,MALE MAZDOOR,01/06/1961,01/03/2010,01/09/2010,31/05/2019
22680,Mr.,DEEPAK G. GHATKAR,W.GR. IV,1,ESTATE,1,WORKMEN,PERMANENT,MUMBAI,MALE MAZDOOR,01/06/1970,01/06/2010,01/06/2010,31/05/2028
22693,Mr.,CHANDRAKANT S. PEJE,W.GR. IV,1,ESTATE,1,WORKMEN,PERMANENT,MUMBAI,MALE MAZDOOR,20/11/1972,01/08/2010,01/08/2010,30/11/2030
22698,Mr.,PARSHURAM L. DONGRE,W.GR. IV,1,ESTATE,1,WORKMEN,PERMANENT,MUMBAI,MALE MAZDOOR,15/05/1972,01/11/2010,01/11/2010,31/05/2030
22704,Mr.,GANESH RAMCHANDRA NANDGAONKAR,W.GR. IV,1,ESTATE,1,WORKMEN,PERMANENT,MUMBAI,MALE MAZDOOR,27/06/1971,01/01/2011,01/01/2011,30/06/2029
22707,Mr.,GANGARAM L. SHINDE,W.GR. IV,1,ESTATE,1,WORKMEN,PERMANENT,MUMBAI,MALE MAZDOOR,15/02/1960,01/02/2011,01/02/2011,28/02/2018
22723,Mr.,VIJAY MAHADEO KHAKE,W.GR. IV,1,ESTATE,1,WORKMEN,PERMANENT,MUMBAI,MALE MAZDOOR,01/05/1967,01/06/2011,01/06/2011,30/04/2025
22735,Mr.,SAHADEO SONU JADHAV,W.GR. IV,1,ESTATE,1,WORKMEN,PERMANENT,MUMBAI,MALE MAZDOOR,18/09/1970,01/09/2011,01/09/2011,30/09/2028
22759,Mr.,SHRIKANT DHANJI MORE,W.GR. III,1,ESTATE,1,WORKMEN,PERMANENT,MUMBAI,PLUMBER,01/07/1970,01/01/2012,01/01/2012,30/06/2028
22774,Mr.,RAMESH B. MAHIDA,W.GR. IV,1,ESTATE,1,WORKMEN,PERMANENT,MUMBAI,MAZDOOR\SWEEPER,22/07/1968,01/04/2012,01/10/2012,31/07/2026
22775,Mr.,KISHOR K  WAGHELA,W.GR. IV,1,ESTATE,1,WORKMEN,PERMANENT,MUMBAI,MAZDOOR\SWEEPER,30/12/1963,01/04/2012,01/10/2012,31/12/2021
22776,Mr.,BALU MANKU KAMBLE,W.GR. IV,1,ESTATE,1,WORKMEN,PERMANENT,MUMBAI,MALE MAZDOOR,25/03/1962,01/04/2012,01/10/2012,31/03/2020
22777,Mr.,SUBHASH BAPU UMAPE,W.GR. IV,1,ESTATE,1,WORKMEN,PERMANENT,MUMBAI,MALE MAZDOOR,04/06/1969,01/04/2012,01/10/2012,30/06/2027
22778,Mr.,THAKUR PRASAD SHIVLAL YADAV,W.GR. IV,1,ESTATE,1,WORKMEN,PERMANENT,MUMBAI,MALE MAZDOOR,10/05/1962,01/04/2012,01/10/2012,31/05/2020
22779,Mr.,SANJAY RAGHUNATH KUMBHAR,W.GR. IV,1,ESTATE,1,WORKMEN,PERMANENT,MUMBAI,MALE MAZDOOR,03/09/1977,01/04/2012,01/10/2012,30/09/2035
22780,Mr.,RAVINDRA RAMESH WAIDANDE,W.GR. IV,1,ESTATE,1,WORKMEN,PERMANENT,MUMBAI,MALE MAZDOOR,03/09/1977,01/04/2012,01/10/2012,30/09/2035
22793,Mr.,KISAN MARUTI PANCHRAS,W.GR. IV,1,ESTATE,1,WORKMEN,PERMANENT,MUMBAI,MALE MAZDOOR,01/06/1970,02/05/2012,01/11/2012,31/05/2028
22794,Mr.,SHAILESH MANOHER RANPISE,W.GR. IV,1,ESTATE,1,WORKMEN,PERMANENT,MUMBAI,MALE MAZDOOR,02/12/1972,02/05/2012,01/11/2012,31/12/2030
22797,Mr.,VISHNU BABU SOLANKI,W.GR. IV,1,ESTATE,1,WORKMEN,PERMANENT,MUMBAI,MAZDOOR\SWEEPER,10/11/1965,02/05/2012,01/11/2012,30/11/2023
22805,Mr.,NITIN KISAN PATOLE,W.GR. III,1,ESTATE,1,WORKMEN,PERMANENT,MUMBAI,PLUMBER,21/11/1972,01/06/2012,01/06/2012,30/11/2030
22806,Mr.,MARUTI RAMCHANDRA SHIRKE,W.GR. III,1,ESTATE,1,WORKMEN,PERMANENT,MUMBAI,PLUMBER,14/05/1969,04/06/2012,01/12/2012,31/05/2027
22815,Mr.,PRAKASH RAOJI MANDAVKAR,W.GR. IV,1,ESTATE,1,WORKMEN,PERMANENT,MUMBAI,MALE MAZDOOR,07/06/1972,01/07/2012,01/01/2013,30/06/2030
22816,Mr.,RAJENDRA LAXMAN MANDAVKAR,W.GR. IV,1,ESTATE,1,WORKMEN,PERMANENT,MUMBAI,MALE MAZDOOR,18/05/1974,01/07/2012,01/01/2013,31/05/2032
22832,Mr.,CHANDRAKANT GOVIND GHAWALI,W.GR. IV,1,ESTATE,1,WORKMEN,PERMANENT,MUMBAI,MALE MAZDOOR,01/01/1968,01/08/2012,01/01/2013,31/12/2025
22833,Mr.,ANANT RAMCHANDRA SANDIM,W.GR. IV,1,ESTATE,1,WORKMEN,PERMANENT,MUMBAI,MALE MAZDOOR,01/10/1972,01/08/2012,01/01/2013,30/09/2030
22838,Mr.,RASUL SAHEBLAL PATEL,W.GR. IV,1,ESTATE,1,WORKMEN,PERMANENT,MUMBAI,MALE MAZDOOR,22/04/1975,01/09/2012,01/02/2013,30/04/2033
22839,Mr.,SANDEEP BABAJI BHOGLE,W.GR. IV,1,ESTATE,1,WORKMEN,PERMANENT,MUMBAI,MALE MAZDOOR,02/06/1976,01/09/2012,01/02/2013,30/06/2034
22842,Mr.,ANIL RAJARAM KHUNTE,W.GR. IV,1,ESTATE,1,WORKMEN,PERMANENT,MUMBAI,CLEANER,26/02/1973,01/10/2012,01/03/2013,28/02/2031
22868,Mr.,VAIBHAV NARAYAN ANGANE,G=MANAGER,1,ESTATE,1,STAFF,PERMANENT,MUMBAI,MANAGER,18/04/1979,01/12/2013,01/06/2014,30/04/2037
22924,Mr.,MANGESH LAXMAN PANCHAL,W.GR. I,1,ESTATE,1,WORKMEN,PERMANENT,MUMBAI,CARPENTER ,16/09/1982,01/03/2015,01/09/2015,30/09/2040
22934,Mr.,PITAMBER KRISHNA KAMBLE,CONSOLIDATED,1,ESTATE,1,WORKMEN,PERMANENT,MUMBAI,MALE MAZDOOR,01/06/1957,15/06/2015,15/06/2015,14/06/2016
22935,Mr.,SUBHASH D.SARFARE,CONSOLIDATED,1,ESTATE,1,WORKMEN,PERMANENT,MUMBAI,UG Tank Operator,01/07/1957,01/07/2015,01/07/2015,30/06/2016
29110,Mr.,SUHAIL S MOHAMMED,C-OFFICIAL,1,ESTATE,1,OFFICIALS,PERMANENT,MUMBAI,ESTATE OFFICER MRC,05/09/1964,15/06/2009,15/06/2009,30/09/2022
29117,Mr.,Y JOHN,D-OFFICIAL,1,ESTATE,1,OFFICIALS,PERMANENT,MUMBAI,DY.ESTATE OFFICER,10/12/1952,01/01/2015,01/01/2015,31/12/2016
19079,Mr.,G VENKATESHAN,D-OFFICIAL,1,M.B.D.,13,OFFICIALS,PERMANENT,MUMBAI,Admin. Officer,03/02/1969,13/03/2005,13/03/2005,28/02/2027
22458,Ms.,VANITA K KAMBLE,J=ASSISTANT,1,MINI CLUB,13,STAFF,PERMANENT,MUMBAI,ASSISTANT,23/02/1970,01/02/2006,01/02/2006,28/02/2028
22870,Mr.,HEMANT MOHAN BAGAVE,J=ASSISTANT,1,MINI CLUB,13,STAFF,PERMANENT,MUMBAI,ASSISTANT,17/07/1977,01/01/2014,01/07/2014,31/07/2035
22923,Mr.,RAHUL SUBHASH MALAYE,G=MANAGER,1,MINI CLUB,13,STAFF,PERMANENT,MUMBAI,MANAGER,28/06/1984,15/02/2015,15/02/2015,30/06/2042
22928,Mr.,PRATIK GOVIND PARAB,J=ASSISTANT,1,MINI CLUB,13,STAFF,PERMANENT,MUMBAI,ASSISTANT,24/04/1989,15/05/2015,15/05/2015,30/04/2047
12140,Mr.,FRANCIS MATHEW THACHIL,G=MANAGER,1,MOTOR DEPT.,8,STAFF,PERMANENT,MUMBAI,MANAGER (AUTO),05/04/1962,23/08/1996,23/08/1996,30/04/2020
22116,Mr.,SANTOSH D.JADHAV,W.GR. I,1,MOTOR DEPT.,8,WORKMEN,PERMANENT,MUMBAI,DRIVER/MECHANIC I,02/10/1976,15/01/1996,15/01/1996,31/10/2034
22191,Mr.,SHEKHAR N. PARDESHI,W.GR. I,1,MOTOR DEPT.,8,WORKMEN,PERMANENT,MUMBAI,DRIVER S.G.,30/05/1968,02/05/1997,02/05/1997,31/05/2026
22192,Mr.,SANJAY J. CHOWGHULE,W.GR. I,1,MOTOR DEPT.,8,WORKMEN,PERMANENT,MUMBAI,DRIVER,19/06/1968,04/05/1997,04/05/1997,30/06/2026
22230,Mr.,HARISHCHANDRA B. JAISWAL,W.GR. I,1,MOTOR DEPT.,8,WORKMEN,PERMANENT,MUMBAI,DRIVER/MECHANIC I,02/02/1972,01/12/1997,01/12/1997,28/02/2030
22246,Mr.,SURENDRA S.SHINDE,W.GR. I,1,MOTOR DEPT.,8,WORKMEN,PERMANENT,MUMBAI,DRIVER S.G.,01/01/1971,01/04/1998,01/04/1998,31/12/2028
22559,Mr.,SANTOSH RAJARAM UMAPE,W.GR. II,1,MOTOR DEPT.,8,WORKMEN,PERMANENT,MUMBAI,DRIVER,20/07/1972,01/09/2008,01/09/2008,31/07/2030
22861,Mr.,PETCHIMUTHU S THEVER,W.GR. III,1,MOTOR DEPT.,8,WORKMEN,PERMANENT,MUMBAI,DRIVER,11/04/1976,04/10/2013,04/10/2013,30/04/2034
22877,Mr.,MANOJ SHANKER SATHE,CONSOLIDATED,1,MOTOR DEPT.,8,WORKMEN,PERMANENT,MUMBAI,DRIVER,15/04/1984,10/03/2014,12/09/2014,30/04/2042
22878,Mr.,DEEPAK YASHWANT THOMBARE,CONSOLIDATED,1,MOTOR DEPT.,8,WORKMEN,PERMANENT,MUMBAI,DRIVER,05/02/1982,10/03/2014,12/09/2014,28/02/2040
21328,Mr.,AUGUSTIN DMELLO,H=DY MANAGER,1,P.L.D.,13,STAFF,PERMANENT,MUMBAI,DY.MANAGER,20/05/1958,15/12/1980,15/12/1980,31/05/2016
21463,Mr.,EVEREST M FARGOSE,E-OFFICIAL,1,P.L.D.,13,OFFICIALS,PERMANENT,MUMBAI,OFFICER (EDP),26/10/1959,02/07/1982,02/07/1982,31/10/2017
21855,Mr.,MOJES JOSEPH PEREIRA,G=MANAGER,1,P.L.D.,13,STAFF,PERMANENT,MUMBAI,MANAGER,25/11/1968,01/11/1991,01/11/1991,30/11/2026
21872,Mr.,JOHN PETER FERNANDES,G=MANAGER,1,P.L.D.,13,STAFF,PERMANENT,MUMBAI,MANAGER,17/03/1968,17/06/1992,17/06/1992,31/03/2026
22531,Ms.,SWEEDLE A TUSCANO,I=ASST.MANAGER,1,P.L.D.,13,STAFF,PERMANENT,MUMBAI,ASST.MANAGER,29/12/1985,01/09/2007,01/09/2007,31/12/2043
22734,Mr.,MOHAN V PALAYE,G=MANAGER,1,P.L.D.,13,STAFF,PERMANENT,MUMBAI,MANAGER,02/03/1966,18/08/2011,01/02/2012,31/03/2024
22812,Mr.,SHIVAJI MAYAPPA KUNNURE,W.GR. III,1,P.L.D.,13,PEON,PERMANENT,MUMBAI,PEON,17/05/1982,16/06/2012,01/12/2012,31/05/2040
22916,Ms.,MEENAKSHI SHAMRAO NIKAM,J=ASSISTANT,1,P.L.D.,13,STAFF,PERMANENT,MUMBAI,ASSISTANT,14/10/1990,22/09/2014,01/03/2015,31/10/2048
29124,Mr.,DINESH K BACHHAV,C-OFFICIAL,1,P.L.D.,13,OFFICIALS,PERMANENT,MUMBAI,G.M. (Personnel & Administration),09/07/1972,10/09/2015,10/09/2015,31/07/2030
11572,Mr.,N.H.SUBRAMANIAN,A-OFFICIAL,1,SECRETARIAT,13,OFFICIALS,PERMANENT,MUMBAI,ADDITIONAL SECRETARY,30/11/1959,05/10/1984,05/10/1984,30/11/2021
11866,Mr.,A.S.RAMACHANDRAN,G=MANAGER,1,SECRETARIAT,13,STAFF,PERMANENT,MUMBAI,MANAGER,28/07/1963,18/05/1992,18/05/1992,31/07/2021
11983,Mr.,N.P.MOHANAN,G=MANAGER,1,SECRETARIAT,13,STAFF,PERMANENT,MUMBAI,MANAGER,15/03/1969,17/11/1994,17/11/1994,31/03/2027
11989,Mr.,M.M.SOMANATHAN NAIR,E-OFFICIAL,1,SECRETARIAT,13,OFFICIALS,PERMANENT,MUMBAI,P A TO SECRETARY,04/04/1965,01/01/1995,01/01/1995,30/04/2023
12101,Mr.,ANIL N.SHARMA,W.GR. II,1,SECRETARIAT,13,DAFTARY,PERMANENT,MUMBAI,DAFTARY,20/10/1970,01/11/1995,01/11/1995,31/10/2028
19003,Mr.,B A ENGINEER,A-OFFICIAL,1,SECRETARIAT,13,OFFICIALS,PERMANENT,MUMBAI,SECRETARY,14/11/1951,14/06/1976,14/06/1976,30/11/2016
22208,Ms.,Z.D.SINGPOORWALA,G=MANAGER,1,SECRETARIAT,13,STAFF,PERMANENT,MUMBAI,MANAGER,03/09/1963,08/08/1997,08/08/1997,30/09/2021
22421,Ms.,PARIZAD P HANSOTIA,G=MANAGER,1,SECRETARIAT,13,STAFF,PERMANENT,MUMBAI,MANAGER,24/01/1984,25/11/2004,25/11/2004,31/01/2042
22521,Ms.,NANDA D ACHREKAR,J=ASSISTANT,1,SECRETARIAT,13,STAFF,PERMANENT,MUMBAI,RECEPTIONIST,25/11/1963,01/08/2007,01/08/2007,30/11/2021
22740,Mr.,HEMANT VISHWANATH TANDALE,W.GR. III,1,SECRETARIAT,13,PEON,PERMANENT,MUMBAI,PEON,15/06/1985,01/11/2011,01/05/2012,30/06/2043
22745,Ms.,LAKSHMY NARAYANAN,I=ASST.MANAGER,1,SECRETARIAT,13,STAFF,PERMANENT,MUMBAI,Steno-Secretary,07/04/1963,23/11/2011,23/05/2012,30/04/2021
99989,Mr.,POPAT NEMINATH TIWATANE,CONSULTANT,1,SECURITY,5,OFFICIALS,CONSULTANT,MUMBAI,Security/Vig.OFFICER,01/06/1957,01/01/2016,01/01/2016,31/12/2018
21940,Mr.,SANJU MUTHUSWAMY PILLAI,W.GR. IV(A),1,SECURITY,5,WORKMEN,PERMANENT,MUMBAI,WATCHMAN,26/12/1958,01/05/1994,01/05/1994,31/12/2016
22057,Mr.,BABU LAGHRA MITHAPARA,W.GR. IV(A),1,SECURITY,5,WORKMEN,PERMANENT,MUMBAI,WATCHMAN,02/11/1961,03/05/1995,03/05/1995,30/11/2019
22134,Mr.,MAHESHKUMAR T.AWASTHI,W.GR. IV(A),1,SECURITY,5,WORKMEN,PERMANENT,MUMBAI,WATCHMAN,15/07/1958,01/06/1996,01/06/1996,31/07/2016
22284,Mr.,DEVIGULAM BISHNUPAD TRIVEDI,W.GR. IV(A),1,SECURITY,5,WORKMEN,PERMANENT,MUMBAI,WATCHMAN,09/01/1960,13/01/2000,13/01/2000,31/01/2018
22572,Mr.,NARAPATSINGH VISHWANATH S,W.GR. IV(A),1,SECURITY,5,WORKMEN,PERMANENT,MUMBAI,WATCHMAN,15/08/1958,01/09/2008,01/09/2008,31/08/2016
22573,Mr.,BALKRISHNA D KANADE,W.GR. IV(A),1,SECURITY,5,WORKMEN,PERMANENT,MUMBAI,WATCHMAN,31/07/1968,01/09/2008,01/09/2008,31/07/2026
22574,Mr.,SUNIL MAHADEO RASAL,W.GR. IV(A),1,SECURITY,5,WORKMEN,PERMANENT,MUMBAI,WATCHMAN,13/04/1965,01/09/2008,01/09/2008,30/04/2023
22575,Mr.,VIJAY DATTU KAMBLE,W.GR. IV(A),1,SECURITY,5,WORKMEN,PERMANENT,MUMBAI,WATCHMAN,05/06/1967,01/09/2008,01/09/2008,30/06/2025
22577,Mr.,SERAJUDDIN W SAYYED,W.GR. IV(A),1,SECURITY,5,WORKMEN,PERMANENT,MUMBAI,WATCHMAN,20/07/1967,01/09/2008,01/09/2008,31/07/2025
22578,Mr.,ASHOK SADASHIV PARAB,W.GR. IV(A),1,SECURITY,5,WORKMEN,PERMANENT,MUMBAI,WATCHMAN,03/01/1961,01/09/2008,01/09/2008,31/01/2019
22579,Mr.,SAMPAT PIRAJI AKUTE,W.GR. IV(A),1,SECURITY,5,WORKMEN,PERMANENT,MUMBAI,WATCHMAN,01/06/1971,01/09/2008,01/09/2008,31/05/2029
22580,Mr.,MANOHAR BALKRISHNA PASHTE,W.GR. IV(A),1,SECURITY,5,WORKMEN,PERMANENT,MUMBAI,WATCHMAN,02/04/1966,01/09/2008,01/09/2008,30/04/2024
22581,Mr.,BALKRISHNA SAKHARAM SAWANT,W.GR. IV(A),1,SECURITY,5,WORKMEN,PERMANENT,MUMBAI,WATCHMAN,28/08/1967,01/09/2008,01/09/2008,31/08/2025
22582,Mr.,RAKESH SATYANARAYAN SINGH,W.GR. IV(A),1,SECURITY,5,WORKMEN,PERMANENT,MUMBAI,WATCHMAN,01/01/1964,01/09/2008,01/09/2008,31/12/2021
22583,Mr.,RAMMILAN R RAWAT,W.GR. IV(A),1,SECURITY,5,WORKMEN,PERMANENT,MUMBAI,WATCHMAN,02/08/1974,01/09/2008,01/09/2008,31/08/2032
22584,Mr.,MAHENDRA DLAJIT SINGH,W.GR. IV(A),1,SECURITY,5,WORKMEN,PERMANENT,MUMBAI,WATCHMAN,28/08/1970,01/09/2008,01/09/2008,31/08/2028
22585,Mr.,SHAKIL AKHTAR MUSHTAQ AHMAD,W.GR. IV(A),1,SECURITY,5,WORKMEN,PERMANENT,MUMBAI,WATCHMAN,01/07/1963,01/09/2008,01/09/2008,30/06/2021
22586,Mr.,ASHOK KUMAR RAGHUNATH NIRMAL,W.GR. IV(A),1,SECURITY,5,WORKMEN,PERMANENT,MUMBAI,WATCHMAN,01/03/1973,01/09/2008,01/09/2008,28/02/2031
22587,Mr.,SURESHCHANDRA N BOURIA,W.GR. IV(A),1,SECURITY,5,WORKMEN,PERMANENT,MUMBAI,WATCHMAN,20/02/1968,01/09/2008,01/09/2008,28/02/2026
22588,Mr.,VIJAYPAL A SINGH,W.GR. IV(A),1,SECURITY,5,WORKMEN,PERMANENT,MUMBAI,WATCHMAN,11/11/1973,01/09/2008,01/09/2008,30/11/2031
22589,Mr.,KRIPASHANKAR BASUDAVE DIXIT,W.GR. IV(A),1,SECURITY,5,WORKMEN,PERMANENT,MUMBAI,WATCHMAN,03/08/1966,01/09/2008,01/09/2008,31/08/2024
22590,Mr.,SAJJANKUMAR SHIVLAL YADAV,W.GR. IV(A),1,SECURITY,5,WORKMEN,PERMANENT,MUMBAI,WATCHMAN,08/07/1973,01/09/2008,01/09/2008,31/07/2031
22591,Mr.,NARENDRAPRATAP R SINGH,W.GR. IV(A),1,SECURITY,5,WORKMEN,PERMANENT,MUMBAI,WATCHMAN,15/08/1974,01/09/2008,01/09/2008,31/08/2032
22656,Mr.,ONKARNATH SHIVSHARMA DIXIT,W.GR. IV,1,SECURITY,5,WORKMEN,PERMANENT,MUMBAI,WATCHMAN,09/11/1970,01/01/2010,01/01/2010,30/11/2028
22664,Mr.,ARJUNPRASAD J,W.GR. IV,1,SECURITY,5,WORKMEN,PERMANENT,MUMBAI,WATCHMAN,15/10/1968,01/02/2010,01/02/2010,31/10/2026
22705,Mr.,RAMCHANDRA GOPAL MANIYAR,W.GR. IV,1,SECURITY,5,WORKMEN,PERMANENT,MUMBAI,WATCHMAN,25/08/1966,01/01/2011,01/01/2011,31/08/2024
22708,Mr.,SUNILKUMAR SHANKARSINGH,W.GR. IV,1,SECURITY,5,WORKMEN,PERMANENT,MUMBAI,WATCHMAN,12/05/1968,01/02/2011,01/02/2011,31/05/2026
22711,Mr.,KOUSHALENDRA R. SINGH,W.GR. IV,1,SECURITY,5,WORKMEN,PERMANENT,MUMBAI,WATCHMAN,08/05/1971,01/03/2011,01/03/2011,31/05/2029
22722,Mr.,ABHILAKH RAMBALI YADAV,W.GR. IV,1,SECURITY,5,WORKMEN,PERMANENT,MUMBAI,WATCHMAN,07/12/1975,01/06/2011,01/06/2011,31/12/2033
22732,Mr.,KAILAS VITTHAL SALVE,W.GR. IV,1,SECURITY,5,WORKMEN,PERMANENT,MUMBAI,WATCHMAN,24/01/1967,01/08/2011,01/02/2012,31/01/2025
22760,Mr.,RAMASHANKAR C SHUKLA,W.GR. IV,1,SECURITY,5,WORKMEN,PERMANENT,MUMBAI,WATCHMAN,17/08/1966,01/01/2012,01/01/2012,31/08/2024
22761,Mr.,DINESHKUMAR S DUBE,W.GR. IV,1,SECURITY,5,WORKMEN,PERMANENT,MUMBAI,WATCHMAN,03/02/1975,01/01/2012,01/01/2012,28/02/2033
22765,Mr.,SHIVBARAN C SINGH,W.GR. IV,1,SECURITY,5,WORKMEN,PERMANENT,MUMBAI,WATCHMAN,31/08/1972,01/01/2012,01/01/2012,31/08/2030
22768,Mr.,INDRAKUMAR RAMBALI SINGH,W.GR. IV,1,SECURITY,5,WORKMEN,PERMANENT,MUMBAI,WATCHMAN,15/04/1966,01/01/2012,01/01/2012,30/04/2024
22769,Mr.,SUNIL SAHADEO JADHAV,W.GR. IV,1,SECURITY,5,WORKMEN,PERMANENT,MUMBAI,WATCHMAN,04/02/1975,01/01/2012,01/01/2012,28/02/2033
22795,Mr.,RAMBHAVAN RAMKHILAWAN RAWAT,W.GR. IV,1,SECURITY,5,WORKMEN,PERMANENT,MUMBAI,WATCHMAN,15/01/1975,02/05/2012,01/11/2012,31/01/2033
22844,Mr.,RAMRAJ MAHAVIR PANDEY,W.GR. IV,1,SECURITY,5,WORKMEN,PERMANENT,MUMBAI,WATCHMAN,02/08/1966,01/01/2013,01/07/2013,31/08/2024
22846,Mr.,SALIM ZOOHARTALAB KHAN,W.GR. IV,1,SECURITY,5,WORKMEN,PERMANENT,MUMBAI,WATCHMAN,16/11/1968,01/02/2013,01/08/2013,30/11/2026
22876,Mr.,RAMESHCHANDRA RAMSEVAK TRIPATHI,W.GR. IV,1,SECURITY,5,WORKMEN,PERMANENT,MUMBAI,WATCHMAN,21/01/1974,01/03/2014,01/03/2014,31/01/2032
22894,Mr.,RAJKUMAR R SINGH,W.GR. IV,1,SECURITY,5,WORKMEN,PERMANENT,MUMBAI,WATCHMAN,05/07/1971,01/06/2014,01/06/2014,31/07/2029
22895,Mr.,NANDKISHOR B YADAV,W.GR. IV,1,SECURITY,5,WORKMEN,PERMANENT,MUMBAI,WATCHMAN,20/04/1964,01/06/2014,01/06/2014,30/04/2022
22896,Mr.,AMARENDRA S SINGH,W.GR. IV,1,SECURITY,5,WORKMEN,PERMANENT,MUMBAI,WATCHMAN,20/06/1971,01/06/2014,01/06/2014,30/06/2029
22919,Mr.,FAZAL MOHD.M.S. SHAIKH,W.GR. IV,1,SECURITY,5,WORKMEN,PERMANENT,MUMBAI,WATCHMAN,12/12/1976,01/12/2014,01/12/2014,31/12/2034
22920,Mr.,LUIS PETER DSOUZA,W.GR. IV,1,SECURITY,5,WORKMEN,PERMANENT,MUMBAI,WATCHMAN,04/02/1964,01/01/2015,01/01/2015,28/02/2022
22930,Mr.,VINAYAK R. RAUT,W.GR. IV,1,SECURITY,5,WORKMEN,PERMANENT,MUMBAI,WATCHMAN,01/05/1976,15/06/2015,15/06/2015,30/04/2034
22931,Mr.,BRIJESHKUMAR T.TRIPATHI,W.GR. IV,1,SECURITY,5,WORKMEN,PERMANENT,MUMBAI,WATCHMAN,10/12/1973,15/06/2015,15/06/2015,31/12/2031
22932,Mr.,RAMESHPRASAD G. TRIVEDI,W.GR. IV,1,SECURITY,5,WORKMEN,PERMANENT,MUMBAI,WATCHMAN,05/08/1968,15/06/2015,15/06/2015,31/08/2026
22933,Mr.,BHOLARAM M. DIWAKAR,W.GR. IV,1,SECURITY,5,WORKMEN,PERMANENT,MUMBAI,WATCHMAN,15/11/1966,15/06/2015,15/06/2015,30/11/2024
21969,Mr.,VIJAY P.DMELLO,G=MANAGER,1,STORES,13,STAFF,PERMANENT,MUMBAI,MANAGER,12/05/1972,01/09/1994,01/09/1994,31/05/2030
22754,Mr.,VISHAL K.PATIL,W.GR. III,1,STORES,13,PEON,PERMANENT,MUMBAI,PEON,10/04/1978,01/01/2012,01/07/2012,30/04/2036
22757,Mr.,SANTOSH B.BHOSALE,W.GR. III,1,STORES,13,PEON,PERMANENT,MUMBAI,PEON,23/03/1984,01/01/2012,01/07/2012,31/03/2042
12117,Mr.,ABUL BASAR R.A.SHAIKH,J=ASSISTANT,1,TOTES,4,STAFF,PERMANENT,MUMBAI,ASSISTANT,16/07/1966,01/02/1996,01/02/1996,31/07/2024
22123,Mr.,INTEKHAB ALAM I.QURESHI,G=MANAGER,1,TOTES,18,STAFF,PERMANENT,MUMBAI,MANAGER,06/04/1974,15/04/1996,15/04/1996,30/04/2032
22125,Mr.,VILAS G.KUDTARKAR,G=MANAGER,1,TOTES,4,STAFF,PERMANENT,MUMBAI,MANAGER,01/06/1973,01/05/1996,01/05/1996,31/05/2031
22210,Mr.,PARAG S.KESARKAR,D-OFFICIAL,1,TOTES,4,OFFICIALS,PERMANENT,MUMBAI,ASST.GEN.MANAGER TOTE,29/07/1973,01/09/1997,01/09/1997,31/07/2031
22249,Mr.,SHASHANK S.DESAI,G=MANAGER,1,TOTES,17,STAFF,PERMANENT,MUMBAI,MANAGER,26/03/1977,08/09/1998,08/09/1998,31/03/2035
22509,Mr.,PRABHAKAR B TERAVKAR,W.GR. III,1,TOTES,4,WORKMEN,PERMANENT,MUMBAI,TECHNICIAN GEN,04/02/1974,01/07/2007,01/07/2007,28/02/2032
22510,Mr.,SANTOSH N AMBAWADE,W.GR. III,1,TOTES,4,WORKMEN,PERMANENT,MUMBAI,TECHNICIAN GEN,31/01/1975,01/07/2007,01/07/2007,31/01/2033
22567,Mr.,ANIL PANDURANG TAMBE,W.GR. III,1,TOTES,4,WORKMEN,PERMANENT,MUMBAI,TECHNICIAN GEN,04/08/1971,01/09/2008,01/09/2008,31/08/2029
22568,Mr.,SANTOSH BAPU RASAM,W.GR. III,1,TOTES,4,WORKMEN,PERMANENT,MUMBAI,TECHNICIAN GEN,01/12/1967,01/09/2008,01/09/2008,30/11/2025
22569,Mr.,NATHU P AKUTE,W.GR. III,1,TOTES,4,WORKMEN,PERMANENT,MUMBAI,TECHNICIAN GEN,07/02/1976,01/09/2008,01/09/2008,28/02/2034
22570,Mr.,SUNIL CHINTAMAN SATAV,W.GR. III,1,TOTES,4,WORKMEN,PERMANENT,MUMBAI,TECHNICIAN GEN,04/05/1965,01/09/2008,01/09/2008,31/05/2023
22749,Mr.,RADHESHYAM RAMASHANKAR YADAV,J=ASSISTANT,1,TOTES,4,STAFF,PERMANENT,MUMBAI,COMPUTER OPERATOR,31/01/1985,12/12/2011,01/07/2012,31/01/2043
22758,Mr.,GAURIHAR P.POWAR,I=ASST.MANAGER,1,TOTES,4,STAFF,PERMANENT,MUMBAI,ASST.MANAGER,14/09/1972,01/01/2012,01/07/2012,30/09/2030
22763,Mr.,VIJAY M.NARKAR,W.GR. III,1,TOTES,4,WORKMEN,PERMANENT,MUMBAI,TECHNICIAN GEN,28/12/1972,07/01/2012,01/07/2012,31/12/2030
22764,Mr.,VIKAS J.PABREKAR,W.GR. III,1,TOTES,4,WORKMEN,PERMANENT,MUMBAI,TECHNICIAN GEN,24/12/1982,07/01/2012,01/07/2012,31/12/2040
22766,Mr.,MOHAN R.GURAV,I=ASST.MANAGER,1,TOTES,4,STAFF,PERMANENT,MUMBAI,ASST.MANAGER,08/08/1985,10/01/2012,01/07/2012,31/08/2043
22811,Mr.,UMESH JAYANTI MARU,J=ASSISTANT,1,TOTES,4,STAFF,PERMANENT,MUMBAI,COMPUTER OPERATOR,26/06/1984,15/06/2012,01/12/2012,30/06/2042
22829,Mr.,MANGESH SITARAM SHINDE,W.GR. III,1,TOTES,4,PEON,PERMANENT,MUMBAI,PEON,01/04/1986,04/07/2012,01/01/2013,31/03/2044
22882,Mr.,MANOHAR P WAIM,CONSOLIDATED,1,TOTES,4,DAFTARY,PERMANENT,MUMBAI,DAFTARY,15/03/1956,01/04/2014,01/04/2014,31/03/2016
22891,Mr.,TANAJI P DEOKAR,CONSOLIDATED,1,TOTES,4,PEON,PERMANENT,MUMBAI,PEON,01/06/1956,01/06/2014,01/06/2014,31/05/2016
22903,Mr.,SACHIN DNYANESHWAR ALHAT ,CONSOLIDATED,1,TOTES,4,PEON,PERMANENT,MUMBAI,PEON,06/05/1979,01/08/2014,01/02/2015,31/05/2037
22904,Mr.,GOPAL GANGARAM SAWANT,CONSOLIDATED,1,TOTES,4,PEON,PERMANENT,MUMBAI,PEON,23/08/1975,01/08/2014,01/02/2015,31/08/2033
22905,Mr.,MEWALAL VISHRAM PARDESHI,CONSOLIDATED,1,TOTES,4,PEON,PERMANENT,MUMBAI,PEON,27/11/1983,01/08/2014,01/02/2015,30/11/2041
29078,Mr.,SANTOSH KUMAR,C-OFFICIAL,1,TOTES,4,OFFICIALS,PERMANENT,MUMBAI,G.M. (Totalizators),04/08/1964,05/01/2005,05/01/2005,31/08/2022
21893,Mr.,FRANCIS I.SOARES,H=DY MANAGER,2,ACCOUNTS,13,STAFF,PERMANENT,PUNE,DY.MANAGER,10/10/1970,01/05/1993,01/05/1993,31/10/2028
31652,Ms.,V.S.GUPTE,C-OFFICIAL,2,BLOOD TYP. LAB.,12,OFFICIALS,PERMANENT,PUNE,CHIEF ANALYST(B.T.L.),02/02/1961,01/01/1987,01/01/1987,28/02/2023
31832,Ms.,P.A.SHINDE,D-OFFICIAL,2,BLOOD TYP. LAB.,12,OFFICIALS,PERMANENT,PUNE,ANALYST(B.T.L.),10/02/1964,04/03/1991,04/03/1991,28/02/2026
32143,Ms.,S.A.PILLAY,H=DY MANAGER,2,BLOOD TYP. LAB.,12,STAFF,PERMANENT,PUNE,DY.MANAGER,21/01/1967,16/10/1996,16/10/1996,31/01/2025
32695,Ms.,RUPALI M. KAKADE,I=ASST.MANAGER,2,BLOOD TYP. LAB.,12,STAFF,PERMANENT,PUNE,ASST.MANAGER,19/12/1981,16/08/2010,16/08/2010,31/12/2039
32741,Mr.,AJIT BHIKOBA SHINDE,W.GR. III,2,BLOOD TYP. LAB.,12,PEON,PERMANENT,PUNE,PEON,11/11/1972,01/11/2011,01/05/2012,30/11/2030
11980,Mr.,VIKRAM B. SURYAVANSHI,H=DY MANAGER,2,DESPATCH,13,STAFF,PERMANENT,PUNE,DY.MANAGER,01/06/1958,01/11/1994,01/11/1994,31/05/2016
32113,Mr.,SUNIL S.BHALERAO,W.GR. II,2,DESPATCH,13,DAFTARY,PERMANENT,PUNE,DAFTARY,12/06/1969,16/12/1995,16/12/1995,30/06/2027
41693,Mr.,TUKARAM KONDIBA PATIL,W.GR. III,3,DESPATCH,13,PEON,PERMANENT,PUNE,PEON,10/07/1961,01/12/1989,01/12/1989,31/07/2019
21659,Mr.,ANIL B. SHINDE,W.GR.  I(A),2,ELECT.& MECH.,10,WORKMEN,PERMANENT,PUNE,ELECT.GR.I,28/12/1963,01/12/1987,01/12/1987,31/12/2021
21869,Mr.,UDAYKANT SITARAM KAMBLE,W.GR. II,2,ELECT.& MECH.,10,WORKMEN,PERMANENT,PUNE,FITTER GR.II,07/04/1962,03/06/1992,03/06/1992,30/04/2020
32100,Mr.,MURALIDHAR D.BHOJANE,W.GR.  I(A),2,ELECT.& MECH.,10,WORKMEN,PERMANENT,PUNE,ELECT.GR.I,01/06/1958,01/08/1995,01/08/1995,31/05/2016
32327,Mr.,SHARAD D. BAHIRAT,W.GR. II,2,ELECT.& MECH.,10,WORKMEN,PERMANENT,PUNE,ELECT. GR.II,05/08/1959,01/04/2000,01/04/2000,31/08/2017
32513,Mr.,SHRIKRISHNA J PANSARE,W.GR. II,2,ELECT.& MECH.,10,WORKMEN,PERMANENT,PUNE,ELECT.GR.II,02/06/1959,01/07/2007,01/07/2007,30/06/2017
32514,Mr.,VASUDEO R MANDLIK,W.GR. II,2,ELECT.& MECH.,10,WORKMEN,PERMANENT,PUNE,ELECT.GR.II,12/07/1971,01/07/2007,01/07/2007,31/07/2029
32742,Mr.,SUNIL VASANTRAO BHOSALE ,W.GR. III,2,ELECT.& MECH.,10,WORKMEN,PERMANENT,PUNE,ELECT.G.III,01/06/1967,14/11/2011,14/05/2012,31/05/2025
32743,Mr.,SANDEEP MHASKOO SATAV,W.GR. II,2,ELECT.& MECH.,10,WORKMEN,PERMANENT,PUNE,ELECT.GR.II,20/06/1974,14/11/2011,14/05/2012,30/06/2032
32744,Mr.,SUNIL MANOHAR KADAM,W.GR. III,2,ELECT.& MECH.,10,WORKMEN,PERMANENT,PUNE,ELECT.G.III,07/05/1966,14/11/2011,14/05/2012,31/05/2024
41619,Mr.,ASHOK GENBA GAIKWAD,W.GR. I,3,ELECT.& MECH.,10,WORKMEN,PERMANENT,PUNE,ELECT.GR.II,01/07/1962,06/07/1985,06/07/1985,30/06/2020
12220,Mr.,RAJENDRA VASANT AWALE,W.GR. II,2,ESTATE,2,DAFTARY,PERMANENT,PUNE,DAFTARY,29/06/1971,01/11/1997,01/11/1997,30/06/2029
12226,Mr.,JABBAR G. SINGH,W.GR. I,2,ESTATE,2,WORKMEN,PERMANENT,PUNE,SUPERVISOR,04/11/1974,01/11/1997,01/11/1997,30/11/2032
19028,Mr.,B.N.NANJAPA,C-OFFICIAL,1,ESTATE,2,OFFICIALS,PERMANENT,PUNE,"ESTATE OFFICER, PRC",29/10/1955,01/06/1990,01/06/1990,31/10/2017
19098,Mr.,AVINASH T NAIDU,C-OFFICIAL,1,ESTATE,2,OFFICIALS,PERMANENT,PUNE,DY. STIP. STEWARD,10/03/1982,15/11/2007,15/11/2007,31/03/2040
21861,Mr.,MADHUKAR J.SALUNKE,W.GR. IV(A),1,ESTATE,2,WORKMEN,PERMANENT,PUNE,UNSKILLED CATEGORY,09/09/1961,01/02/1992,01/02/1992,30/09/2019
31517,Mr.,RATAN G RAJGURU,W.GR. III,2,ESTATE,2,WORKMEN,PERMANENT,PUNE,MUKADAM,25/10/1959,01/11/1983,01/11/1983,31/10/2017
31698,Mr.,BALASAHEB SADASHIV NEWASE,W.GR.  I(A),2,ESTATE,2,WORKMEN,PERMANENT,PUNE,SUPERVISOR,01/06/1960,01/01/1990,01/01/1990,31/05/2018
31823,Mr.,SAIMAN LAZARES NADERPALLA,W.GR. IV(A),2,ESTATE,2,WORKMEN,PERMANENT,PUNE,SWEEPER(MALE),01/11/1963,01/11/1990,01/11/1990,31/10/2021
31905,Mr.,SHANKARSWARP S. KUDIYA,W.GR. IV(A),2,ESTATE,2,WORKMEN,PERMANENT,PUNE,SWEEPER(MALE),02/07/1974,15/10/1993,15/10/1993,31/07/2032
32110,Mr.,SIMON T.JOSEPH,W.GR. II,2,ESTATE,2,WORKMEN,PERMANENT,PUNE,PAINTER GR.I,13/12/1961,16/12/1995,16/12/1995,31/12/2019
32294,Mr.,DADOO KISON KAMBLE,W.GR. IV(A),2,ESTATE,2,WORKMEN,PERMANENT,PUNE,MALE MAZDOOR,02/03/1959,01/04/2000,01/04/2000,31/03/2017
32303,Mr.,BALU VISHNU THOSAR,W.GR. IV(A),2,ESTATE,2,WORKMEN,PERMANENT,PUNE,MALE MAZDOOR,02/06/1958,01/04/2000,01/04/2000,30/06/2016
32308,Mr.,ARUN GENBA AMBEKAR,W.GR. IV(A),2,ESTATE,2,WORKMEN,PERMANENT,PUNE,MALE MAZDOOR,01/06/1960,01/04/2000,01/04/2000,31/05/2018
32309,Mr.,PRAMOD SADASHIV UNAWANE,W.GR. IV(A),2,ESTATE,2,WORKMEN,PERMANENT,PUNE,MALE MAZDOOR,04/01/1964,01/04/2000,01/04/2000,31/01/2022
32310,Mr.,ASHOK BHIWA AWLE,W.GR. IV(A),2,ESTATE,2,WORKMEN,PERMANENT,PUNE,MALE MAZDOOR,02/09/1960,01/04/2000,01/04/2000,30/09/2018
32326,Mr.,MARIAPPA T. KAMATHI,W.GR. I,2,ESTATE,2,WORKMEN,PERMANENT,PUNE,FITTER GR.I,12/06/1962,01/04/2000,01/04/2000,30/06/2020
32365,Ms.,ALKA M KAMBLE,W.GR. IV(A),2,ESTATE,2,WORKMEN,PERMANENT,PUNE,FEMALE MAZDOOR,01/06/1959,01/04/2002,01/04/2002,31/05/2017
32376,Mr.,SURESH VASANT DUBLE,W.GR. IV(A),2,ESTATE,2,WORKMEN,PERMANENT,PUNE,MALE MAZDOOR,12/09/1961,01/08/2002,01/08/2002,30/09/2019
32382,Mr.,DEEPAK SAKHARAM HAGWANE,W.GR. III,2,ESTATE,2,WORKMEN,PERMANENT,PUNE,MUKADAM,01/06/1966,01/02/2003,01/02/2003,31/05/2024
32390,Mr.,SURESH D HARPALE,W.GR. IV(A),2,ESTATE,2,WORKMEN,PERMANENT,PUNE,CLEANER,02/06/1962,01/05/2003,01/05/2003,30/06/2020
32411,Mr.,GANESH DHONDIRAM GAIKWAD,W.GR. IV(A),2,ESTATE,2,WORKMEN,PERMANENT,PUNE,MALE MAZDOOR,01/06/1967,01/07/2004,01/07/2004,31/05/2025
32412,Mr.,ASHOK RAJARAM SAWANT,W.GR. IV(A),2,ESTATE,2,WORKMEN,PERMANENT,PUNE,MALE MAZDOOR,11/07/1969,01/07/2004,01/07/2004,31/07/2027
32467,Mr.,SANJAY S CHAVAN,H=DY MANAGER,2,ESTATE,2,STAFF,PERMANENT,PUNE,DY.MANAGER,01/06/1971,01/04/2006,01/04/2006,31/05/2029
32468,Mr.,POPAT GENBA AMBEKAR,W.GR. III,2,ESTATE,2,WORKMEN,PERMANENT,PUNE,DRIVER,01/05/1966,01/05/2006,01/05/2006,30/04/2024
32472,Mr.,JAYSINGH RAO BANSODE,W.GR. IV(A),2,ESTATE,2,WORKMEN,PERMANENT,PUNE,MALE MAZDOOR,01/06/1964,01/06/2006,01/06/2006,31/05/2022
32473,Mr.,KRUZ SUNMOGAM PILLAY,W.GR. IV(A),2,ESTATE,2,WORKMEN,PERMANENT,PUNE,CLOAK ROOM ATTDT.,01/06/1963,01/06/2006,01/06/2006,31/05/2021
32496,Mr.,SANJAY NAMDOA KAMTHE,W.GR. IV(A),2,ESTATE,2,WORKMEN,PERMANENT,PUNE,MALE MAZDOOR,19/04/1968,01/06/2007,01/06/2007,30/04/2026
32498,Mr.,BALU KISAN KUMBHARKAR,W.GR. IV(A),2,ESTATE,2,WORKMEN,PERMANENT,PUNE,MALE MAZDOOR,01/06/1963,01/06/2007,01/06/2007,31/05/2021
32500,Ms.,SANGEETA R TILEKAR,W.GR. IV(A),2,ESTATE,2,WORKMEN,PERMANENT,PUNE,FEMALE MAZDOOR,17/07/1971,01/07/2007,01/07/2007,31/07/2029
32512,Mr.,VIKAS N SUTAR,W.GR. II,2,ESTATE,2,WORKMEN,PERMANENT,PUNE,CARPENTER G.II,01/06/1969,01/07/2007,01/07/2007,31/05/2027
32516,Mr.,UTTAM T DALVI,W.GR. III,2,ESTATE,2,WORKMEN,PERMANENT,PUNE,MASON GR.III,02/06/1958,01/07/2007,01/07/2007,30/06/2016
32529,Ms.,NANDA VILAS DHIWAR,W.GR. IV(A),2,ESTATE,2,WORKMEN,PERMANENT,PUNE,FEMALE MAZDOOR,06/09/1966,01/09/2007,01/09/2007,30/09/2024
32536,Mr.,BALKRISHNA M KAWADE,W.GR. IV(A),2,ESTATE,2,WORKMEN,PERMANENT,PUNE,MALE MAZDOOR,24/05/1963,01/12/2007,01/12/2007,31/05/2021
32541,Mr.,SHEKHAR S BADADE,W.GR. II,2,ESTATE,2,PEON,PERMANENT,PUNE,DAFTARY,18/07/1968,01/03/2008,01/03/2008,31/07/2026
32542,Mr.,CHANDRAKISHORE B CHAVAN,W.GR. III,2,ESTATE,2,WORKMEN,PERMANENT,PUNE,MUKADAM,08/06/1968,01/03/2008,01/03/2008,30/06/2026
32543,Mr.,DATTATRAY T KAMTHE,W.GR. IV(A),2,ESTATE,2,WORKMEN,PERMANENT,PUNE,MALE MAZDOOR,10/06/1968,01/03/2008,01/03/2008,30/06/2026
32544,Ms.,JANABAI C GAIKWAD,W.GR. IV(A),2,ESTATE,2,WORKMEN,PERMANENT,PUNE,FEMALE MAZDOOR,20/01/1968,01/04/2008,01/04/2008,31/01/2026
32546,Ms.,NARMADA JANKU BHUJBAL,W.GR. IV(A),2,ESTATE,2,WORKMEN,PERMANENT,PUNE,FEMALE MAZDOOR,15/04/1966,01/05/2008,01/05/2008,30/04/2024
32592,Mr.,SADHU CHENDA KAMBLE,W.GR. IV(A),2,ESTATE,2,WORKMEN,PERMANENT,PUNE,MALE MAZDOOR,01/06/1959,01/09/2008,01/09/2008,31/05/2017
32593,Mr.,SURYAKANT MOHAN DHAVRE,W.GR. IV(A),2,ESTATE,2,WORKMEN,PERMANENT,PUNE,MALE MAZDOOR,04/04/1971,01/09/2008,01/09/2008,30/04/2029
32595,Mr.,GORAKH L KALE,W.GR. IV(A),2,ESTATE,2,WORKMEN,PERMANENT,PUNE,MALE MAZDOOR,01/05/1972,01/09/2008,01/09/2008,30/04/2030
32596,Mr.,SIDDESHWAR LALJI BOKHARE,W.GR. IV(A),2,ESTATE,2,WORKMEN,PERMANENT,PUNE,MALE MAZDOOR,14/10/1960,01/09/2008,01/09/2008,31/10/2018
32597,Mr.,ASHOK KERU MANDALE,W.GR. IV(A),2,ESTATE,2,WORKMEN,PERMANENT,PUNE,MALE MAZDOOR,30/04/1973,01/09/2008,01/09/2008,30/04/2031
32602,Ms.,TARABAI MADHUKAR KUDALE,W.GR. IV(A),2,ESTATE,2,WORKMEN,PERMANENT,PUNE,FEMALE MAZDOOR,01/02/1959,01/09/2008,01/09/2008,31/01/2017
32603,Ms.,SUMAN DATTA GAIKWAD,W.GR. IV(A),2,ESTATE,2,WORKMEN,PERMANENT,PUNE,FEMALE MAZDOOR,01/06/1970,01/09/2008,01/09/2008,31/05/2028
32604,Mr.,SATISHKUMAR R RAJORIA,W.GR. IV(A),2,ESTATE,2,WORKMEN,PERMANENT,PUNE,MAZDOOR\SWEEPER,01/07/1975,01/09/2008,01/09/2008,30/06/2033
32629,Ms.,CHITRABAI BAPU TORNE,W.GR. IV(A),2,ESTATE,2,WORKMEN,PERMANENT,PUNE,FEMALE MAZDOOR,01/07/1964,01/03/2009,01/03/2009,30/06/2022
32632,Ms.,LALITA P NAIDU,W.GR. IV(A),2,ESTATE,2,WORKMEN,PERMANENT,PUNE,FEMALE MAZDOOR,01/06/1962,01/04/2009,01/04/2009,31/05/2020
32635,Mr.,MARUTI KESHAV AOUCHARE,W.GR. IV(A),2,ESTATE,2,WORKMEN,PERMANENT,PUNE,MALE MAZDOOR,07/08/1965,01/05/2009,01/05/2009,31/08/2023
32662,Ms.,SHIBANI S. BIRMAL,I=ASST.MANAGER,2,ESTATE,2,STAFF,PERMANENT,PUNE,ASST.MANAGER,04/11/1986,01/01/2010,01/01/2010,30/11/2044
32667,Mr.,HANUMANT S HARPALE,W.GR. IV,2,ESTATE,2,WORKMEN,PERMANENT,PUNE,MALE MAZDOOR,01/05/1969,01/03/2010,01/03/2010,30/04/2027
32668,Mr.,RAMDAS S MIREKAR,W.GR. IV,2,ESTATE,2,WORKMEN,PERMANENT,PUNE,MALE MAZDOOR,30/06/1960,01/03/2010,01/03/2010,30/06/2018
32669,Ms.,PRAMILA A YADAV,W.GR. IV,2,ESTATE,2,WORKMEN,PERMANENT,PUNE,FEMALE MAZDOOR,01/05/1968,01/03/2010,01/03/2010,30/04/2026
32682,Mr.,MALHARI SOPANA CHAVAN,W.GR. IV,2,ESTATE,2,WORKMEN,PERMANENT,PUNE,MALE MAZDOOR,09/04/1973,01/06/2010,01/06/2010,30/04/2031
32683,Mr.,UMESH R. BANSODE,W.GR. IV,2,ESTATE,2,WORKMEN,PERMANENT,PUNE,MALE MAZDOOR,10/02/1974,01/06/2010,01/06/2010,28/02/2032
32684,Ms.,BABY ADINATH ABNAVE,W.GR. IV,2,ESTATE,2,WORKMEN,PERMANENT,PUNE,FEMALE MAZDOOR,05/06/1961,01/06/2010,01/06/2010,30/06/2019
32685,Mr.,SANJAY J. SHELAR,W.GR. III,2,ESTATE,2,WORKMEN,PERMANENT,PUNE,POLISHMAN CUM MAZDOOR,01/06/1972,01/06/2010,01/06/2010,31/05/2030
32687,Ms.,LEELA PRAKASH CHAVAN,W.GR. IV,2,ESTATE,2,WORKMEN,PERMANENT,PUNE,FEMALE MAZDOOR,01/06/1964,01/07/2010,01/07/2010,31/05/2022
32696,Ms.,LALITA R.NAMBIAR,W.GR. IV,2,ESTATE,2,WORKMEN,PERMANENT,PUNE,FEMALE MAZDOOR,30/06/1960,01/09/2010,01/02/2011,30/06/2018
32712,Ms.,INDIRA RANGANATHAN PILLAY,W.GR. IV,2,ESTATE,2,WORKMEN,PERMANENT,PUNE,FEMALE MAZDOOR,08/01/1961,01/03/2011,01/03/2011,31/01/2019
32716,Mr.,KHUSHAL BAJIRAO MORE,W.GR. III,2,ESTATE,2,WORKMEN,PERMANENT,PUNE,MASON GR.III,17/08/1960,01/04/2011,01/04/2011,31/08/2018
32717,Mr.,GOVIND J. KHANDAVE,W.GR. III,2,ESTATE,2,WORKMEN,PERMANENT,PUNE,MUKADAM,30/06/1975,01/05/2011,01/05/2011,30/06/2033
32721,Ms.,LATA RAMESH SASANE,W.GR. IV,2,ESTATE,2,WORKMEN,PERMANENT,PUNE,FEMALE MAZDOOR,15/04/1959,01/06/2011,01/06/2011,30/04/2017
32736,Ms.,SHAMMA ABDUL PANSARE,W.GR. III,2,ESTATE,2,WORKMEN,PERMANENT,PUNE,MUKADAM,01/06/1965,01/09/2011,01/09/2011,31/05/2023
32746,Mr.,ASHOK DAYANAND ARJUN,W.GR. III,2,ESTATE,2,PEON,PERMANENT,PUNE,PEON,03/02/1986,05/12/2011,01/06/2012,28/02/2044
32747,Mr.,RAM S.KADU,W.GR. III,2,ESTATE,2,WORKMEN,PERMANENT,PUNE,MALI,03/05/1968,05/12/2011,05/12/2011,31/05/2026
32748,Ms.,PARIMALA S.PILLAY,W.GR. III,2,ESTATE,2,WORKMEN,PERMANENT,PUNE,ASST.GODOWNKEEPER,09/04/1960,05/12/2011,05/12/2011,30/04/2018
32781,Mr.,SHRIRANG MARUTI GAIKWAD,W.GR. IV,2,ESTATE,2,WORKMEN,PERMANENT,PUNE,MALE MAZDOOR,19/09/1968,02/05/2012,01/11/2012,30/09/2026
32782,Mr.,VINOD MANOHER KAMBLE,W.GR. IV,2,ESTATE,2,WORKMEN,PERMANENT,PUNE,MALE MAZDOOR,23/02/1975,02/05/2012,01/11/2012,28/02/2033
32783,Mr.,DEVANAND R. KAPSE,W.GR. IV,2,ESTATE,2,WORKMEN,PERMANENT,PUNE,MALE MAZDOOR,05/09/1963,02/05/2012,01/11/2012,30/09/2021
32785,Mr.,PRAVIN K. JAMBHULKAR,W.GR. IV,2,ESTATE,2,WORKMEN,PERMANENT,PUNE,MALE MAZDOOR,29/04/1973,02/05/2012,01/11/2012,30/04/2031
32786,Mr.,SUNIL TUKARAM GAIKWAD,W.GR. IV,2,ESTATE,2,WORKMEN,PERMANENT,PUNE,MALE MAZDOOR,03/03/1960,02/05/2012,01/11/2012,31/03/2018
32787,Mr.,SUNIL R. KHUTWAD,W.GR. IV,2,ESTATE,2,WORKMEN,PERMANENT,PUNE,MALE MAZDOOR,01/04/1977,02/05/2012,01/11/2012,31/03/2035
32788,Mr.,RAVI PANDURANG JAGTAP,W.GR. III,2,ESTATE,2,WORKMEN,PERMANENT,PUNE,FITTER GR.III,29/06/1974,02/05/2012,01/11/2012,30/06/2032
32789,Mr.,TANAJI D. SATAV,W.GR. IV,2,ESTATE,2,WORKMEN,PERMANENT,PUNE,MALE MAZDOOR,15/09/1970,02/05/2012,01/11/2012,30/09/2028
32790,Mr.,SHANTARAM D. WADKAR,W.GR. IV,2,ESTATE,2,WORKMEN,PERMANENT,PUNE,MALE MAZDOOR,17/12/1974,02/05/2012,01/11/2012,31/12/2032
32792,Mr.,PRALHAD R. ADAGALE,W.GR. IV,2,ESTATE,2,WORKMEN,PERMANENT,PUNE,MALE MAZDOOR,24/06/1970,02/05/2012,01/11/2012,30/06/2028
32799,Mr.,HIRAMAN D SASANE,W.GR. IV,2,ESTATE,2,WORKMEN,PERMANENT,PUNE,MALE MAZDOOR,01/06/1960,01/06/2012,01/06/2012,31/05/2018
32800,Mr.,DEEPAK S SATHE,W.GR. IV,2,ESTATE,2,WORKMEN,PERMANENT,PUNE,MALE MAZDOOR,01/11/1976,01/06/2012,01/06/2012,31/10/2034
32801,Mr.,NAVNATH P GHULE,W.GR. IV,2,ESTATE,2,WORKMEN,PERMANENT,PUNE,MALE MAZDOOR,03/06/1979,01/06/2012,01/06/2012,30/06/2037
32802,Mr.,SANDEEP K RANPISE,W.GR. IV,2,ESTATE,2,WORKMEN,PERMANENT,PUNE,MALE MAZDOOR,11/10/1973,01/06/2012,01/06/2012,31/10/2031
32803,Mr.,GANESH N MORE,W.GR. IV,2,ESTATE,2,WORKMEN,PERMANENT,PUNE,MALE MAZDOOR,27/03/1978,01/06/2012,01/06/2012,31/03/2036
32804,Mr.,KAILASH T JADHAV,W.GR. IV,2,ESTATE,2,WORKMEN,PERMANENT,PUNE,MALE MAZDOOR,03/07/1977,01/06/2012,01/06/2012,31/07/2035
32817,Mr.,BIBHISHAN P KASBE,W.GR. IV,2,ESTATE,2,WORKMEN,PERMANENT,PUNE,MALE MAZDOOR,01/06/1977,01/07/2012,01/01/2013,31/05/2035
32818,Mr.,AAJU K PANSARE,W.GR. IV,2,ESTATE,2,WORKMEN,PERMANENT,PUNE,MALE MAZDOOR,15/11/1974,01/07/2012,01/01/2013,30/11/2032
32819,Mr.,SAMBHAJI K CHAVAN,W.GR. IV,2,ESTATE,2,WORKMEN,PERMANENT,PUNE,MALE MAZDOOR,01/04/1970,01/07/2012,01/01/2013,31/03/2028
32826,Mr.,LANCY ANTHONY BRAGGS,I=ASST.MANAGER,2,ESTATE,2,STAFF,PERMANENT,PUNE,ASST.MANAGER,14/05/1967,01/07/2012,01/01/2013,31/05/2025
32827,Mr.,VISHAL M JAGTAP,J=ASSISTANT,2,ESTATE,2,STAFF,PERMANENT,PUNE,ASSISTANT,31/05/1987,01/07/2012,20/09/2013,31/05/2045
32836,Mr.,SOMNATH LALA CHAVAN,W.GR. IV,2,ESTATE,2,WORKMEN,PERMANENT,PUNE,Weighing Room Attendant,03/04/1974,01/09/2012,01/03/2013,30/04/2032
32837,Mr.,ARUN LAZARES NADERPALLA,W.GR. IV,2,ESTATE,2,WORKMEN,PERMANENT,PUNE,Wet Sweeper,16/05/1986,01/09/2012,01/03/2013,31/05/2044
32841,Mr.,SAMEER S. TRIBHUVAN,W.GR. IV,2,ESTATE,2,WORKMEN,PERMANENT,PUNE,MALE MAZDOOR,06/02/1975,01/10/2012,01/03/2013,28/02/2033
32909,Mr.,UMAKANT VASANT PATIL,G=MANAGER,2,ESTATE,2,STAFF,PERMANENT,PUNE,Horticulturist,13/09/1976,01/09/2014,01/03/2015,30/09/2034
32921,Ms.,VAISHALI BHAUSAHEB BARAVKAR,CONSOLIDATED,2,ESTATE,2,WORKMEN,PERMANENT,PUNE,FEMALE MAZDOOR,14/05/1981,12/01/2015,12/07/2015,31/05/2039
41633,Mr.,KAILASH A JADHAV,W.GR. IV(A),2,ESTATE,2,WORKMEN,PERMANENT,PUNE,UNSKILLED CATEGORY,01/07/1962,01/01/1986,01/01/1986,30/06/2020
11577,Mr.,GORAKH B BHOJANE,W.GR. II,2,MOTOR DEPT.,9,WORKMEN,PERMANENT,PUNE,DRIVER S.G.,04/06/1962,01/11/1984,01/11/1984,30/06/2020
11859,Mr.,AFZAL SHAREEF KHAN,W.GR. I,2,MOTOR DEPT.,9,WORKMEN,PERMANENT,PUNE,DRIVER/AUTO ELECT,16/05/1966,15/01/1992,15/01/1992,31/05/2024
11860,Mr.,SHRIDHAR ASHOK DOGRAI,W.GR.  I(A),2,MOTOR DEPT.,9,WORKMEN,PERMANENT,PUNE,FOREMAN I/C MOTOR DEPT,20/01/1972,15/01/1992,15/01/1992,31/01/2030
21522,Mr.,A SHANKAR PANDIAN,W.GR. II,2,MOTOR DEPT.,9,WORKMEN,PERMANENT,PUNE,DRIVER S.G.,06/07/1959,01/12/1983,01/12/1983,31/07/2017
31968,Mr.,VIJAY J.PILLAY,W.GR. I,2,MOTOR DEPT.,8,WORKMEN,PERMANENT,PUNE,FITTER GR.I / DRIVER,20/04/1971,01/09/1994,01/09/1994,30/04/2029
32332,Mr.,MOHD.AKTHAR S.SHAIKH,W.GR. II,2,MOTOR DEPT.,9,WORKMEN,PERMANENT,PUNE,R.L.T. DRIVER / MECH.II,12/06/1971,01/07/2000,01/07/2000,30/06/2029
32364,Mr.,YOGANAND C PILLAY,W.GR. II,2,MOTOR DEPT.,9,WORKMEN,PERMANENT,PUNE,DRIVER / PAINTER,05/12/1962,01/03/2002,01/03/2002,31/12/2020
31899,Mr.,MICHAEL F. DSOUZA,H=DY MANAGER,2,P.L.D.,13,STAFF,PERMANENT,PUNE,DY.MANAGER,29/09/1958,01/07/1993,01/07/1993,30/09/2016
32677,Mr.,MANGESH DILIP VARADE,H=DY MANAGER,2,P.L.D.,13,STAFF,PERMANENT,PUNE,PERSONNEL OFFICER,21/04/1979,14/05/2010,01/11/2010,30/04/2037
31830,Mr.,VILAS SARJERAO WABLE,W.GR. II,2,SECURITY,6,WORKMEN,PERMANENT,PUNE,ASST.JAMADAR,01/03/1960,15/01/1991,15/01/1991,28/02/2018
31873,Mr.,VILAS KONDIBA KATKE,W.GR. IV(A),2,SECURITY,6,WORKMEN,PERMANENT,PUNE,WATCHMAN,01/06/1958,01/07/1992,01/07/1992,31/05/2016
31907,Mr.,GAUTAM RAO BANSODE,W.GR. IV(A),2,SECURITY,6,WORKMEN,PERMANENT,PUNE,WATCHMAN,02/06/1959,01/11/1993,01/11/1993,30/06/2017
32177,Mr.,DHONDIBA SUKHDEO HINGANE,W.GR. IV(A),2,SECURITY,6,WORKMEN,PERMANENT,PUNE,WATCHMAN,06/06/1974,01/12/1996,01/12/1996,30/06/2032
32179,Mr.,MANOJ DINKAR POWAR,W.GR. III,2,SECURITY,6,WORKMEN,PERMANENT,PUNE,ASST.JAMADAR,23/12/1972,01/12/1996,01/12/1996,31/12/2030
32221,Mr.,DILIP SADASHIV JAGTAP,W.GR. IV(A),2,SECURITY,6,WORKMEN,PERMANENT,PUNE,WATCHMAN,01/06/1963,01/11/1997,01/11/1997,31/05/2021
32223,Mr.,RAVINDRA WAMAN SALVE,W.GR. IV(A),2,SECURITY,6,WORKMEN,PERMANENT,PUNE,WATCHMAN,03/11/1969,01/11/1997,01/11/1997,30/11/2027
32225,Mr.,DHANAJI K. DHOKALE,W.GR. IV(A),2,SECURITY,6,WORKMEN,PERMANENT,PUNE,WATCHMAN,22/05/1971,01/11/1997,01/11/1997,31/05/2029
32245,Mr.,KANHYYA S. MINEKAR,W.GR. III,2,SECURITY,6,WORKMEN,PERMANENT,PUNE,ASST.JAMADAR,29/09/1971,15/03/1998,15/03/1998,30/09/2029
32606,Mr.,LAXMAN SOPAN TILEKAR,W.GR. IV(A),2,SECURITY,6,WORKMEN,PERMANENT,PUNE,WATCHMAN,17/02/1968,01/09/2008,01/09/2008,28/02/2026
32607,Mr.,KESHAV SHIVAJI KASBE,W.GR. III,2,SECURITY,6,WORKMEN,PERMANENT,PUNE,SUPERVISOR,13/03/1973,01/09/2008,01/09/2008,31/03/2031
32608,Mr.,SHYAM BHAIYYA MACHHREKAR,W.GR. IV(A),2,SECURITY,6,WORKMEN,PERMANENT,PUNE,WATCHMAN,16/12/1970,01/09/2008,01/09/2008,31/12/2028
32609,Mr.,SONABA LAKUL SHINDE,W.GR. IV(A),2,SECURITY,6,WORKMEN,PERMANENT,PUNE,WATCHMAN,01/06/1973,01/09/2008,01/09/2008,31/05/2031
32610,Mr.,SURYAKANT RAMGOPAL PANDIT,W.GR. IV(A),2,SECURITY,6,WORKMEN,PERMANENT,PUNE,WATCHMAN,10/07/1971,01/09/2008,01/09/2008,31/07/2029
32611,Mr.,SUSHIL SADASHIV JADHAV,W.GR. IV(A),2,SECURITY,6,WORKMEN,PERMANENT,PUNE,WATCHMAN,04/12/1970,01/09/2008,01/09/2008,31/12/2028
32612,Mr.,SURESH YESHWANT GAIKWAD,W.GR. IV(A),2,SECURITY,6,WORKMEN,PERMANENT,PUNE,WATCHMAN,11/04/1973,01/09/2008,01/09/2008,30/04/2031
32613,Mr.,SHANTARAM JAGANNATH KUDALE,W.GR. IV(A),2,SECURITY,6,WORKMEN,PERMANENT,PUNE,WATCHMAN,02/06/1966,01/09/2008,01/09/2008,30/06/2024
32614,Mr.,SHEKHAR BHARAT CHAVAN,W.GR. IV(A),2,SECURITY,6,WORKMEN,PERMANENT,PUNE,WATCHMAN,12/05/1971,01/09/2008,01/09/2008,31/05/2029
32621,Mr.,SANJAY K AKOLKAR,W.GR. IV(A),2,SECURITY,6,WORKMEN,PERMANENT,PUNE,WATCHMAN,21/10/1965,01/10/2008,01/10/2008,31/10/2023
32638,Mr.,SUNIL GANPAT BHOSLE,W.GR. IV(A),2,SECURITY,6,WORKMEN,PERMANENT,PUNE,WATCHMAN,01/06/1970,01/06/2009,01/06/2009,31/05/2028
32657,Mr.,NITIN NAMDEO KAMTHE,W.GR. IV,2,SECURITY,6,WORKMEN,PERMANENT,PUNE,WATCHMAN,28/07/1977,01/01/2010,01/01/2010,31/07/2035
32663,Mr.,PRAMOD M. AWADE,W.GR. IV,2,SECURITY,6,WORKMEN,PERMANENT,PUNE,WATCHMAN,10/08/1977,01/02/2010,01/02/2010,31/08/2035
32686,Mr.,GANESH S. WANKHADE,W.GR. IV,2,SECURITY,6,WORKMEN,PERMANENT,PUNE,WATCHMAN,09/05/1970,01/06/2010,01/06/2010,31/05/2028
32720,Mr.,SANDIP SAHEBRAO CHAVAN,W.GR. IV,2,SECURITY,6,WORKMEN,PERMANENT,PUNE,WATCHMAN,10/01/1978,01/06/2011,01/06/2011,31/01/2036
32751,Mr.,ARJUN NAMDEO AGARKAR,W.GR. IV,2,SECURITY,6,WORKMEN,PERMANENT,PUNE,WATCHMAN,14/10/1977,01/01/2012,01/01/2012,31/10/2035
32752,Mr.,SANTOSH S HINGNE,W.GR. IV,2,SECURITY,6,WORKMEN,PERMANENT,PUNE,WATCHMAN,11/08/1976,01/01/2012,01/01/2012,31/08/2034
32753,Mr.,NANA VISHNU GADE,W.GR. IV,2,SECURITY,6,WORKMEN,PERMANENT,PUNE,WATCHMAN,01/06/1959,01/01/2012,01/01/2012,31/05/2017
32898,Mr.,THOMAS MATHEW KULATHAKAL,G=MANAGER,2,SECURITY,6,STAFF,PERMANENT,PUNE,Security/Vig.OFFICER,28/03/1961,20/06/2014,15/01/2015,31/03/2019
32910,Mr.,SANTOSH KASHINATH REWALE,J=ASSISTANT,2,SECURITY,6,STAFF,PERMANENT,PUNE,CCTV Operator / Assistant,20/01/1989,01/09/2014,01/03/2015,31/01/2047
31864,Mr.,RAJENDRA S.SONAWANE,W.GR. I,2,STORES,13,WORKMEN,PERMANENT,PUNE,SUPERVISOR,19/04/1961,01/03/1992,01/03/1992,30/04/2019
32715,Mr.,SAGAR KANCHAN DHAWADE,G=MANAGER,2,STORES,13,STAFF,PERMANENT,PUNE,MANAGER,11/03/1975,24/03/2011,24/03/2011,31/03/2033
32863,Mr.,GOPAL LAXMAN KOLHE,W.GR. III,2,STORES,13,PEON,PERMANENT,PUNE,PEON,05/04/1972,01/11/2013,01/05/2014,30/04/2030
42199,Ms.,V.S.MOHITE,I=ASST.MANAGER,2,STORES,13,STAFF,PERMANENT,PUNE,ASST.MANAGER,01/07/1968,01/07/1997,01/07/1997,30/06/2026
11910,Mr.,RAJENDRA B. SURVE,I=ASST.MANAGER,2,STUD BOOK,12,STAFF,PERMANENT,PUNE,COMPUTER OPERATOR,13/12/1963,01/11/1993,01/11/1993,31/12/2021
31667,Mr.,SATISH R. IYER,B-OFFICIAL,2,STUD BOOK,12,OFFICIALS,PERMANENT,PUNE,REGISTRAR & KEEPER ISB,31/01/1967,01/08/1988,01/08/1988,31/01/2029
32343,Mr.,ZAKIR HUSSAIN KHAN,H=DY MANAGER,2,STUD BOOK,12,STAFF,PERMANENT,PUNE,DY.MANAGER,10/11/1965,09/04/2001,09/04/2001,30/11/2023
32345,Ms.,J.JOSEPH,E-OFFICIAL,2,STUD BOOK,12,OFFICIALS,PERMANENT,PUNE,ASSISTANT REGISTRAR,30/05/1962,30/04/2001,30/04/2001,31/05/2020
32456,Mr.,RAHUL P BELHEKAR,I=ASST.MANAGER,2,STUD BOOK,12,STAFF,PERMANENT,PUNE,COMPUTER OPERATOR,24/04/1978,15/12/2005,15/12/2005,30/04/2036
32476,Mr.,PRAVIN P DHARMADHIKARI,H=DY MANAGER,2,STUD BOOK,12,STAFF,PERMANENT,PUNE,DY.MANAGER,11/02/1968,01/07/2006,01/07/2006,28/02/2026
32731,Mr.,THYAGARAJ SAMUEL DASON,I=ASST.MANAGER,2,STUD BOOK,12,STAFF,PERMANENT,PUNE,COMPUTER OPERATOR,25/12/1970,01/07/2011,01/07/2011,31/12/2028
32798,Mr.,VINOD KISAN BANSODE,W.GR. III,2,STUD BOOK,12,PEON,PERMANENT,PUNE,PEON,06/07/1970,02/05/2012,01/02/2013,31/07/2028
32807,Ms.,RASIKA KAUSTUBH DIVEKAR,G=MANAGER,2,STUD BOOK,12,STAFF,PERMANENT,PUNE,MANAGER,14/05/1986,07/06/2012,07/06/2012,31/05/2044
39086,Mr.,RAJENDRA R MAHAJAN,E-OFFICIAL,2,STUD BOOK,12,OFFICIALS,PERMANENT,PUNE,SYSTEM ANALYST,02/02/1967,02/05/2006,02/05/2006,28/02/2025
42172,Mr.,DAVID S.GAIKWAD,W.GR. III,3,STUD BOOK,12,PEON,PERMANENT,PUNE,PEON,27/12/1967,01/11/1996,01/11/1996,31/12/2025
11571,Mr.,SAKHARAM S BHALERAO,W.GR. II,2,TOTES,4,DAFTARY,PERMANENT,PUNE,DAFTARY,29/11/1959,01/10/1984,01/10/1984,30/11/2017
11878,Mr.,AYAZ EBRAHIM SHAIKH,H=DY MANAGER,2,TOTES,4,STAFF,PERMANENT,PUNE,DY.MANAGER,05/05/1967,01/10/1992,01/10/1992,31/05/2025
12104,Mr.,PRASHANT C.LODHI,I=ASST.MANAGER,2,TOTES,4,STAFF,PERMANENT,PUNE,ASST.MANAGER,03/09/1970,01/12/1995,01/12/1995,30/09/2028
32200,Mr.,SUBHASH N. DHADGE,G=MANAGER,2,TOTES,4,STAFF,PERMANENT,PUNE,MANAGER,19/09/1970,01/07/1997,01/07/1997,30/09/2028
32425,Mr.,SACHIN JAYAWANT BACHATE,H=DY MANAGER,2,TOTES,4,STAFF,PERMANENT,PUNE,DY.MANAGER,23/06/1975,10/01/2005,10/01/2005,30/06/2033
32477,Mr.,MAYUR S BIRDAWADE,I=ASST.MANAGER,2,TOTES,4,STAFF,PERMANENT,PUNE,COMPUTER OPERATOR,21/11/1980,19/07/2006,19/07/2006,30/11/2038
32495,Mr.,NITIN V NAIK,I=ASST.MANAGER,2,TOTES,16,STAFF,PERMANENT,PUNE,COMPUTER OPERATOR,29/09/1977,15/05/2007,15/05/2007,30/09/2035
32690,Mr.,TUSHAR V. PATIL,I=ASST.MANAGER,2,TOTES,18,STAFF,PERMANENT,PUNE,COMPUTER OPERATOR,07/05/1984,01/07/2010,01/07/2010,31/05/2042
32767,Mr.,LIYAKAT N.SHAIKH,W.GR. III,2,TOTES,4,WORKMEN,PERMANENT,PUNE,TECHNICIAN GEN,16/05/1971,10/01/2012,01/07/2012,31/05/2029
32855,Mr.,ARUN KUMAR,J=ASSISTANT,2,TOTES,17,STAFF,PERMANENT,PUNE,ASSISTANT,15/06/1979,01/08/2013,01/01/2014,30/06/2037
32927,Mr.,YESHWANT J SALUNKE,CONSOLIDATED,2,TOTES,4,DAFTARY,PERMANENT,PUNE,DAFTARY,05/04/1957,01/05/2015,01/05/2015,30/04/2016
39119,Mr.,DILEEPKUMAR S. KIRVE,E-OFFICIAL,2,TOTES,4,OFFICIALS,PERMANENT,PUNE,ASST.OFFICIAL,01/07/1957,01/07/2015,01/07/2015,30/06/2017
12357,Mr.,PRATAP J. BAHADUR,W.GR. II,2,VETERINARY,7,WORKMEN,PERMANENT,PUNE,LAB. ATTD.,16/08/1975,01/08/2001,01/08/2001,31/08/2033
32436,Mr.,RAJENDRA PRASAD,H=DY MANAGER,2,VETERINARY,7,STAFF,PERMANENT,PUNE,DY.MANAGER,18/03/1977,01/06/2005,01/06/2005,31/03/2035
32625,Mr.,SANJAY KISAN NETKE,W.GR. III,2,T.C.H.,15,WORKMEN,PERMANENT,PUNE,ELECT.G.III,06/11/1973,01/01/2009,01/01/2009,30/11/2031
41622,Mr.,JOHN B.DSOUZA,J=ASSISTANT,3,T.C.H.,15,STAFF,PERMANENT,PUNE,BAR TENDER,28/01/1959,01/08/1985,01/08/1985,31/01/2017
42153,Mr.,UMAR ABDUL SHAIKH,W.GR. II,3,T.C.H.,15,WORKMEN,PERMANENT,PUNE,COOK GR.II,01/09/1962,01/11/1996,01/11/1996,31/08/2020
42156,Mr.,PRAMOD D.GAIKWAD,W.GR. IV(A),3,T.C.H.,15,WORKMEN,PERMANENT,PUNE,UNSKILLED CATEGORY,10/10/1973,01/11/1996,01/11/1996,31/10/2031
42165,Mr.,NIMBA YADU PATIL,W.GR. II,3,T.C.H.,15,WORKMEN,PERMANENT,PUNE,COOK GR.II,01/06/1964,01/11/1996,01/11/1996,31/05/2022
42168,Mr.,PRAVIN J.SHIVLE,W.GR. III,3,T.C.H.,15,PEON,PERMANENT,PUNE,PEON,15/02/1971,01/11/1996,01/11/1996,28/02/2029
42215,Mr.,RAHUL MOTILAL PARDESHI,W.GR. III,3,T.C.H.,15,WORKMEN,PERMANENT,PUNE,BILLIARD MARKER,09/09/1975,18/09/1997,18/09/1997,30/09/2033
42235,Mr.,RAGHU R. TOTA,W.GR. II,3,T.C.H.,15,WORKMEN,PERMANENT,PUNE,COOK GR.II,12/05/1970,01/12/1997,01/12/1997,31/05/2028
42237,Mr.,SANDEEP P. SOLANKI,W.GR. III,3,T.C.H.,15,PEON,PERMANENT,PUNE,PEON,09/08/1979,16/12/1997,16/12/1997,31/08/2037
42820,Mr.,ATUL MAHADEO WANKHEDE,J=ASSISTANT,3,T.C.H.,15,STAFF,PERMANENT,PUNE,JUNIOR DATA ENTRY OPERATOR,28/12/1989,01/07/2012,01/01/2013,31/12/2047
42821,Mr.,MAYADHAR BISWANATH PADHI,I=ASST.MANAGER,3,T.C.H.,15,STAFF,PERMANENT,PUNE,F & B CONTROLLER,10/10/1968,01/07/2012,01/01/2013,31/10/2026
42822,Mr.,SATISH NARHARI GAIKWAD,J=ASSISTANT,3,T.C.H.,15,STAFF,PERMANENT,PUNE,STORE KEEPER,01/06/1978,01/07/2012,01/01/2013,31/05/2036
42823,Mr.,THOMAS JOSEPH EDWARD,J=ASSISTANT,3,T.C.H.,15,STAFF,PERMANENT,PUNE,TELEPHONE OPERATOR / RECEPTIONIST,02/01/1985,01/07/2012,01/01/2013,31/01/2043
42824,Mr.,SHALMON ANANDRAO PADOLE,J=ASSISTANT,3,T.C.H.,15,STAFF,PERMANENT,PUNE,TELEPHONE OPERATOR / RECEPTIONIST,27/12/1985,01/07/2012,01/01/2013,31/12/2043
42825,Mr.,KUNAL AMAR KAROSIYA,J=ASSISTANT,3,T.C.H.,15,STAFF,PERMANENT,PUNE,TELEPHONE OPERATOR / RECEPTIONIST,22/06/1984,01/07/2012,01/01/2013,30/06/2042
42849,Mr.,AKSHAY MAHADEO WANKHEDE,W.GR. IV,3,T.C.H.,15,WORKMEN,PERMANENT,PUNE,TECHNICIAN GEN,26/11/1992,22/04/2013,01/10/2013,30/11/2050
42865,Mr.,SANJAY D NAGUL,G=MANAGER,3,T.C.H.,15,STAFF,PERMANENT,PUNE,ACCOUNTS-MANAGER,22/12/1963,20/11/2013,01/05/2014,31/12/2021
41690,Mr.,DOMINIC J.NORONHA,G=MANAGER,3,T.C.H.(OFFICE),15,STAFF,PERMANENT,PUNE,MANAGER,18/12/1964,01/10/1989,01/10/1989,31/12/2022
41974,Ms.,K.G.KHUBCHANDANI,I=ASST.MANAGER,3,T.C.H.(OFFICE),15,STAFF,PERMANENT,PUNE,ASST.MANAGER,13/05/1969,01/10/1994,01/10/1994,31/05/2027
42173,Mr.,MOSES N. DCUNHA,I=ASST.MANAGER,3,T.C.H.(OFFICE),15,STAFF,PERMANENT,PUNE,ASST.MANAGER,02/02/1965,01/11/1996,01/11/1996,28/02/2023
